<svg width="229" height="215" viewBox="0 0 229 215" fill="none" xmlns="http://www.w3.org/2000/svg">
<g filter="url(#filter0_d)">
<path d="M55.6494 17.8844C47.8107 36.0397 15.1831 132.582 15.1831 132.582C13.1913 141.431 27.916 158.422 36.7651 160V102.423C94.0412 113.536 94.8641 84.7446 90.2706 52.1567C85.6771 19.5687 107.065 25.1139 115 23.368L102.86 17.8844C88.5096 -11.0505 63.4881 -0.270869 55.6494 17.8844Z" fill="#64EFF8"/>
</g>
<g filter="url(#filter1_d)">
<path d="M180.141 59.2075C184.256 78.5498 197.26 179.624 197.26 179.624C197.472 188.691 179.694 202.454 170.707 202.262L182.031 145.809C123.687 145.44 128.543 117.05 139.456 86.0015C150.369 54.9534 128.308 56.1839 120.871 52.9116L133.852 49.9226C153.613 24.3752 176.026 39.8652 180.141 59.2075Z" fill="#F8CE64"/>
</g>
<g filter="url(#filter2_d)">
<path d="M81.8332 76.9984L17.0186 5.27495C6.75186 40.2042 8.417 56.1763 29.098 76.0501C47.8145 88.4839 59.2607 89.3354 81.8332 76.9984Z" fill="#FFA51E" fill-opacity="0.5"/>
</g>
<g filter="url(#filter3_d)">
<path d="M144.843 112.018L222.497 54.4418C225.694 90.708 220.92 106.041 196.735 121.459C175.938 129.969 164.548 128.553 144.843 112.018Z" fill="#62DBB6" fill-opacity="0.5"/>
</g>
<defs>
<filter id="filter0_d" x="11" y="0" width="108" height="168" filterUnits="userSpaceOnUse" color-interpolation-filters="sRGB">
<feFlood flood-opacity="0" result="BackgroundImageFix"/>
<feColorMatrix in="SourceAlpha" type="matrix" values="0 0 0 0 0 0 0 0 0 0 0 0 0 0 0 0 0 0 127 0"/>
<feOffset dy="4"/>
<feGaussianBlur stdDeviation="2"/>
<feColorMatrix type="matrix" values="0 0 0 0 0 0 0 0 0 0 0 0 0 0 0 0 0 0 0.25 0"/>
<feBlend mode="normal" in2="BackgroundImageFix" result="effect1_dropShadow"/>
<feBlend mode="normal" in="SourceGraphic" in2="effect1_dropShadow" result="shape"/>
</filter>
<filter id="filter1_d" x="90" y="30" width="137.514" height="184.542" filterUnits="userSpaceOnUse" color-interpolation-filters="sRGB">
<feFlood flood-opacity="0" result="BackgroundImageFix"/>
<feColorMatrix in="SourceAlpha" type="matrix" values="0 0 0 0 0 0 0 0 0 0 0 0 0 0 0 0 0 0 127 0"/>
<feOffset dy="4"/>
<feGaussianBlur stdDeviation="2"/>
<feColorMatrix type="matrix" values="0 0 0 0 0 0 0 0 0 0 0 0 0 0 0 0 0 0 0.25 0"/>
<feBlend mode="normal" in2="BackgroundImageFix" result="effect1_dropShadow"/>
<feBlend mode="normal" in="SourceGraphic" in2="effect1_dropShadow" result="shape"/>
</filter>
<filter id="filter2_d" x="0.00012207" y="5" width="95.0656" height="93" filterUnits="userSpaceOnUse" color-interpolation-filters="sRGB">
<feFlood flood-opacity="0" result="BackgroundImageFix"/>
<feColorMatrix in="SourceAlpha" type="matrix" values="0 0 0 0 0 0 0 0 0 0 0 0 0 0 0 0 0 0 127 0"/>
<feOffset dy="4"/>
<feGaussianBlur stdDeviation="2"/>
<feColorMatrix type="matrix" values="0 0 0 0 0 0 0 0 0 0 0 0 0 0 0 0 0 0 0.25 0"/>
<feBlend mode="normal" in2="BackgroundImageFix" result="effect1_dropShadow"/>
<feBlend mode="normal" in="SourceGraphic" in2="effect1_dropShadow" result="shape"/>
</filter>
<filter id="filter3_d" x="140.234" y="50.9754" width="88.081" height="85.7312" filterUnits="userSpaceOnUse" color-interpolation-filters="sRGB">
<feFlood flood-opacity="0" result="BackgroundImageFix"/>
<feColorMatrix in="SourceAlpha" type="matrix" values="0 0 0 0 0 0 0 0 0 0 0 0 0 0 0 0 0 0 127 0"/>
<feOffset dy="4"/>
<feGaussianBlur stdDeviation="2"/>
<feColorMatrix type="matrix" values="0 0 0 0 0 0 0 0 0 0 0 0 0 0 0 0 0 0 0.25 0"/>
<feBlend mode="normal" in2="BackgroundImageFix" result="effect1_dropShadow"/>
<feBlend mode="normal" in="SourceGraphic" in2="effect1_dropShadow" result="shape"/>
</filter>
</defs>
</svg>
