<svg width="267" height="206" viewBox="0 0 267 206" fill="none" xmlns="http://www.w3.org/2000/svg">
<g filter="url(#filter0_d)">
<path d="M69.6494 17.8844C61.8107 36.0397 29.1831 132.582 29.1831 132.582C27.1913 141.431 41.916 158.422 50.7651 160V102.423C108.041 113.536 108.864 84.7446 104.271 52.1567C99.6771 19.5687 121.065 25.1139 129 23.368L116.86 17.8844C102.51 -11.0505 77.4881 -0.270869 69.6494 17.8844Z" fill="#64EFF8"/>
</g>
<g filter="url(#filter1_d)">
<path d="M203.141 50.2075C207.256 69.5498 220.26 170.624 220.26 170.624C220.472 179.691 202.694 193.454 193.707 193.262L205.031 136.809C146.687 136.44 151.543 108.05 162.456 77.0015C173.369 45.9534 151.308 47.1839 143.871 43.9116L156.852 40.9226C176.613 15.3752 199.026 30.8652 203.141 50.2075Z" fill="#F8CE64"/>
</g>
<g filter="url(#filter2_d)">
<path d="M95.8332 76.9984L31.0186 5.27495C20.7519 40.2042 22.417 56.1763 43.098 76.0501C61.8145 88.4839 73.2607 89.3354 95.8332 76.9984Z" fill="#FFA51E" fill-opacity="0.5"/>
</g>
<g filter="url(#filter3_d)">
<path d="M165.843 103.018L243.497 45.4418C246.694 81.708 241.92 97.0407 217.735 112.459C196.938 120.969 185.548 119.553 165.843 103.018Z" fill="#62DBB6" fill-opacity="0.5"/>
</g>
<g filter="url(#filter4_d)">
<path d="M43.632 77.616H37.776V73.872H43.632V77.616ZM32.592 77.616H26.88V73.872H32.592V77.616ZM21.696 77.616H16.08V73.872H21.696V77.616ZM49.344 68.88H10.608V82.608H49.344V68.88ZM33.264 82.896C30.096 86.208 24.816 89.472 19.968 91.44C19.632 89.856 19.392 88.224 19.152 86.736C19.248 85.68 19.296 84.672 19.344 83.664H13.92C13.584 91.296 12.912 102 7.248 108C8.688 108.96 10.416 110.784 11.376 112.176C14.256 108.96 16.032 104.736 17.184 100.224C18.48 104.352 20.256 108.24 22.752 110.976C23.52 109.488 25.392 107.184 26.544 106.128C23.136 102.96 21.216 97.392 20.064 92.016C21.264 93.216 22.848 95.232 23.568 96.192C24.72 95.616 25.968 94.896 27.216 94.176V112.032H32.832V90.336C34.944 88.704 36.96 86.976 38.544 85.248L33.264 82.896ZM39.84 83.616C39.456 91.056 38.784 101.808 33.168 107.952C34.704 108.96 36.432 110.784 37.392 112.176C40.128 109.008 41.904 104.976 43.056 100.608C44.304 105.024 46.176 109.248 48.864 112.176C49.728 110.64 51.552 108.384 52.752 107.28C47.904 102.864 45.984 93.792 45.168 86.832C45.216 85.728 45.312 84.672 45.36 83.616H39.84ZM55.968 98.832L55.68 97.488C55.328 95.824 55.824 94.32 57.168 92.976C60.112 90.064 62.512 86.592 64.368 82.56C64.432 82.4 64.56 82.192 64.752 81.936C64.816 81.872 64.832 81.808 64.8 81.744C64.768 81.648 64.72 81.6 64.656 81.6H58.704C57.968 81.6 57.328 81.328 56.784 80.784C56.24 80.24 55.968 79.6 55.968 78.864V78.72C55.968 77.984 56.24 77.344 56.784 76.8C57.328 76.256 57.968 75.984 58.704 75.984H60.048C60.304 75.984 60.432 75.856 60.432 75.6V71.664C60.432 70.928 60.704 70.304 61.248 69.792C61.792 69.248 62.432 68.976 63.168 68.976H63.744C64.48 68.976 65.104 69.248 65.616 69.792C66.16 70.304 66.432 70.928 66.432 71.664V75.6C66.432 75.856 66.576 75.984 66.864 75.984H68.112C68.848 75.984 69.488 76.256 70.032 76.8C70.576 77.344 70.848 77.984 70.848 78.72V78.864C70.848 79.888 70.416 80.672 69.552 81.216C69.36 81.344 69.328 81.488 69.456 81.648C70.064 82.416 70.176 83.232 69.792 84.096C68.896 85.984 67.872 87.792 66.72 89.52C66.56 89.744 66.56 89.968 66.72 90.192C66.784 90.288 66.896 90.416 67.056 90.576C67.216 90.736 67.328 90.864 67.392 90.96C67.584 91.152 67.744 91.152 67.872 90.96C68.576 89.936 69.088 89.152 69.408 88.608C69.824 87.904 70.432 87.52 71.232 87.456C71.52 87.456 71.664 87.328 71.664 87.072V72.48C71.664 71.744 71.92 71.104 72.432 70.56C72.976 70.016 73.616 69.744 74.352 69.744H96.432C97.168 69.744 97.808 70.016 98.352 70.56C98.896 71.104 99.168 71.744 99.168 72.48V90.24C99.168 90.976 98.896 91.616 98.352 92.16C97.808 92.704 97.168 92.976 96.432 92.976H88.944C88.656 92.976 88.512 93.104 88.512 93.36V96.528C88.512 96.816 88.656 96.96 88.944 96.96H97.392C98.064 96.96 98.624 97.2 99.072 97.68C99.552 98.128 99.792 98.688 99.792 99.36C99.792 100.032 99.552 100.608 99.072 101.088C98.624 101.536 98.064 101.76 97.392 101.76H88.944C88.656 101.76 88.512 101.888 88.512 102.144V105.648C88.512 105.936 88.656 106.08 88.944 106.08H97.872C98.576 106.08 99.184 106.336 99.696 106.848C100.208 107.328 100.464 107.92 100.464 108.624C100.464 109.328 100.208 109.936 99.696 110.448C99.184 110.96 98.576 111.216 97.872 111.216H71.808C71.104 111.216 70.496 110.96 69.984 110.448C69.504 109.936 69.264 109.328 69.264 108.624C69.264 107.92 69.504 107.328 69.984 106.848C70.496 106.336 71.104 106.08 71.808 106.08H81.888C82.144 106.08 82.272 105.936 82.272 105.648V102.144C82.272 101.888 82.144 101.76 81.888 101.76H73.824C73.152 101.76 72.576 101.536 72.096 101.088C71.648 100.608 71.424 100.032 71.424 99.36C71.424 98.688 71.648 98.128 72.096 97.68C72.576 97.2 73.152 96.96 73.824 96.96H81.888C82.144 96.96 82.272 96.816 82.272 96.528V93.36C82.272 93.104 82.144 92.976 81.888 92.976H77.232H74.352C73.744 92.976 73.168 92.752 72.624 92.304C72.4 92.08 72.224 92.08 72.096 92.304C71.456 93.264 70.976 93.968 70.656 94.416C70.496 94.64 70.496 94.848 70.656 95.04C70.72 95.104 70.8 95.2 70.896 95.328C70.992 95.424 71.056 95.504 71.088 95.568C71.504 96.144 71.696 96.8 71.664 97.536C71.632 98.272 71.376 98.912 70.896 99.456C70.448 99.936 69.888 100.16 69.216 100.128C68.576 100.096 68.064 99.808 67.68 99.264C67.552 99.136 67.376 98.912 67.152 98.592C66.928 98.272 66.768 98.048 66.672 97.92C66.64 97.856 66.592 97.84 66.528 97.872C66.464 97.904 66.432 97.952 66.432 98.016V109.776C66.432 110.512 66.16 111.136 65.616 111.648C65.104 112.192 64.48 112.464 63.744 112.464H63.168C62.432 112.464 61.792 112.192 61.248 111.648C60.704 111.136 60.432 110.512 60.432 109.776V98.064C60.432 98 60.384 97.952 60.288 97.92C60.224 97.888 60.176 97.904 60.144 97.968C59.248 98.928 58.704 99.504 58.512 99.696C58.064 100.112 57.552 100.224 56.976 100.032C56.432 99.84 56.096 99.44 55.968 98.832ZM88.512 75.12V78.816C88.512 79.104 88.656 79.248 88.944 79.248H93.024C93.28 79.248 93.408 79.104 93.408 78.816V75.12C93.408 74.864 93.28 74.736 93.024 74.736H88.944C88.656 74.736 88.512 74.864 88.512 75.12ZM88.512 83.952V87.792C88.512 88.08 88.656 88.224 88.944 88.224H93.024C93.28 88.224 93.408 88.08 93.408 87.792V83.952C93.408 83.664 93.28 83.52 93.024 83.52H88.944C88.656 83.52 88.512 83.664 88.512 83.952ZM77.232 75.12V78.816C77.232 79.104 77.376 79.248 77.664 79.248H81.888C82.144 79.248 82.272 79.104 82.272 78.816V75.12C82.272 74.864 82.144 74.736 81.888 74.736H77.664C77.376 74.736 77.232 74.864 77.232 75.12ZM77.232 83.952V87.792C77.232 88.08 77.376 88.224 77.664 88.224H81.888C82.144 88.224 82.272 88.08 82.272 87.792V83.952C82.272 83.664 82.144 83.52 81.888 83.52H77.664C77.376 83.52 77.232 83.664 77.232 83.952ZM137.568 81.072C137.856 81.072 138 80.928 138 80.64V80.016C138 79.728 137.856 79.584 137.568 79.584H110.016C109.536 79.584 109.12 79.424 108.768 79.104C108.416 78.752 108.24 78.336 108.24 77.856C108.24 77.376 108.416 76.96 108.768 76.608C109.12 76.256 109.536 76.08 110.016 76.08H137.568C137.856 76.08 138 75.936 138 75.648V75.12C138 74.832 137.856 74.688 137.568 74.688H109.68C109.008 74.688 108.432 74.464 107.952 74.016C107.504 73.536 107.28 72.96 107.28 72.288C107.28 71.616 107.504 71.056 107.952 70.608C108.432 70.16 109.008 69.936 109.68 69.936H141.84C142.576 69.936 143.216 70.208 143.76 70.752C144.304 71.264 144.576 71.888 144.576 72.624V82.32C144.576 83.056 144.304 83.696 143.76 84.24C143.216 84.784 142.576 85.056 141.84 85.056H109.248C108.704 85.056 108.24 84.864 107.856 84.48C107.472 84.064 107.28 83.584 107.28 83.04C107.28 82.496 107.472 82.032 107.856 81.648C108.24 81.264 108.704 81.072 109.248 81.072H137.568ZM106.656 97.584C106.08 97.616 105.568 97.44 105.12 97.056C104.672 96.672 104.432 96.192 104.4 95.616C104.336 95.04 104.48 94.544 104.832 94.128C105.216 93.68 105.696 93.44 106.272 93.408C106.592 93.376 107.04 93.344 107.616 93.312C108.224 93.28 108.768 93.248 109.248 93.216C109.728 93.184 110.176 93.152 110.592 93.12C110.88 93.12 111.024 92.976 111.024 92.688V90.912C111.024 90.624 110.896 90.48 110.64 90.48H106.8C106.256 90.48 105.776 90.288 105.36 89.904C104.976 89.52 104.784 89.056 104.784 88.512C104.784 87.968 104.976 87.504 105.36 87.12C105.776 86.704 106.256 86.496 106.8 86.496H121.632C122.176 86.496 122.64 86.704 123.024 87.12C123.408 87.504 123.6 87.968 123.6 88.512C123.6 89.056 123.408 89.52 123.024 89.904C122.64 90.288 122.176 90.48 121.632 90.48H117.696C117.408 90.48 117.264 90.624 117.264 90.912V92.16C117.264 92.416 117.408 92.544 117.696 92.544C118.848 92.416 120.128 92.272 121.536 92.112C122.08 92.048 122.56 92.208 122.976 92.592C123.392 92.944 123.6 93.392 123.6 93.936C123.6 94.544 123.408 95.072 123.024 95.52C122.64 95.968 122.144 96.224 121.536 96.288C117.28 96.8 112.32 97.232 106.656 97.584ZM106.608 103.44C105.936 103.44 105.376 103.216 104.928 102.768C104.48 102.288 104.256 101.712 104.256 101.04C104.256 100.368 104.48 99.808 104.928 99.36C105.376 98.88 105.936 98.64 106.608 98.64H133.92C134.176 98.64 134.304 98.512 134.304 98.256V97.296C134.304 97.008 134.176 96.864 133.92 96.864H130.704H127.824C127.088 96.864 126.448 96.608 125.904 96.096C125.392 95.552 125.136 94.912 125.136 94.176V89.232C125.136 88.496 125.392 87.856 125.904 87.312C126.448 86.768 127.088 86.496 127.824 86.496H144C144.736 86.496 145.376 86.768 145.92 87.312C146.464 87.856 146.736 88.496 146.736 89.232V94.176C146.736 94.912 146.464 95.552 145.92 96.096C145.376 96.608 144.736 96.864 144 96.864H141.312C141.024 96.864 140.88 97.008 140.88 97.296V98.256C140.88 98.512 141.024 98.64 141.312 98.64H145.392C146.064 98.64 146.624 98.88 147.072 99.36C147.52 99.808 147.744 100.368 147.744 101.04C147.744 101.712 147.52 102.288 147.072 102.768C146.624 103.216 146.064 103.44 145.392 103.44H141.312C141.024 103.44 140.88 103.584 140.88 103.872V105.696C140.88 106.848 140.864 107.744 140.832 108.384C140.8 109.024 140.672 109.632 140.448 110.208C140.224 110.784 139.968 111.184 139.68 111.408C139.392 111.664 138.896 111.872 138.192 112.032C137.488 112.224 136.752 112.336 135.984 112.368C135.216 112.4 134.128 112.416 132.72 112.416C131.408 112.416 129.408 112.368 126.72 112.272C125.984 112.24 125.344 111.968 124.8 111.456C124.288 110.944 124.016 110.336 123.984 109.632C123.952 108.96 124.176 108.384 124.656 107.904C125.136 107.424 125.712 107.2 126.384 107.232C128.752 107.328 130.432 107.376 131.424 107.376C132.864 107.376 133.696 107.296 133.92 107.136C134.176 106.944 134.304 106.336 134.304 105.312V103.872C134.304 103.584 134.176 103.44 133.92 103.44H115.44C115.376 103.44 115.344 103.472 115.344 103.536C115.344 103.568 115.376 103.6 115.44 103.632C117.36 104.592 118.784 105.328 119.712 105.84C120.352 106.192 120.752 106.736 120.912 107.472C121.072 108.208 120.96 108.88 120.576 109.488C120.192 110.128 119.648 110.528 118.944 110.688C118.24 110.88 117.568 110.784 116.928 110.4C114.624 109.056 112.832 108.064 111.552 107.424C110.912 107.104 110.496 106.608 110.304 105.936C110.144 105.232 110.256 104.576 110.64 103.968L110.736 103.776C110.8 103.712 110.8 103.648 110.736 103.584C110.704 103.488 110.64 103.44 110.544 103.44H106.608ZM131.136 92.832H140.496C140.752 92.832 140.88 92.688 140.88 92.4V91.056C140.88 90.768 140.752 90.624 140.496 90.624H131.136C130.848 90.624 130.704 90.768 130.704 91.056V92.4C130.704 92.688 130.848 92.832 131.136 92.832ZM166.922 72.375C169.344 72.375 171.891 72.4609 174.562 72.6328C177.234 72.8047 180.047 73.1406 183 73.6406V79.5938C181.953 79.2969 180.758 79.0156 179.414 78.75C178.258 78.5312 176.867 78.3203 175.242 78.1172C173.617 77.9141 171.781 77.7812 169.734 77.7188V108.047H164.156V77.7188C162.109 77.7812 160.273 77.9141 158.648 78.1172C157.023 78.3203 155.633 78.5312 154.477 78.75C153.133 79.0156 151.938 79.2969 150.891 79.5938V73.6406C153.812 73.1406 156.625 72.8047 159.328 72.6328C162.031 72.4609 164.562 72.375 166.922 72.375ZM203.906 71.3906C204.875 71.3906 205.859 71.4922 206.859 71.6953C207.859 71.8828 208.75 72.1406 209.531 72.4688C210.906 74.875 212.156 77.3281 213.281 79.8281C214.422 82.3125 215.438 84.875 216.328 87.5156C216.938 87.5938 217.555 87.6797 218.18 87.7734C218.805 87.8516 219.438 87.9375 220.078 88.0312V94.0312L218.062 93.4688C218.625 95.7969 219.102 98.1719 219.492 100.594C219.883 103.016 220.172 105.484 220.359 108H214.781C214.547 105.312 214.156 102.656 213.609 100.031C213.062 97.4062 212.438 94.8906 211.734 92.4844C210.219 92.3594 208.773 92.2656 207.398 92.2031C206.039 92.1406 204.875 92.1094 203.906 92.1094C202.609 92.1094 201.32 92.1328 200.039 92.1797C198.758 92.2266 197.469 92.3125 196.172 92.4375C195.469 94.8438 194.836 97.3594 194.273 99.9844C193.727 102.609 193.344 105.281 193.125 108H187.547C187.719 105.484 187.992 103.023 188.367 100.617C188.758 98.2109 189.234 95.8438 189.797 93.5156L187.969 94.0312V88.0312L191.578 87.5156C192.453 84.875 193.453 82.3125 194.578 79.8281C195.719 77.3281 196.984 74.875 198.375 72.4688C199.156 72.1406 200.039 71.8828 201.023 71.6953C202.008 71.4922 202.969 71.3906 203.906 71.3906ZM203.906 86.8125C204.844 86.8125 205.812 86.8281 206.812 86.8594C207.812 86.875 208.844 86.9219 209.906 87C209.109 84.8281 208.32 82.9453 207.539 81.3516C206.773 79.7422 206.109 78.5 205.547 77.625C205.266 77.5 205 77.4141 204.75 77.3672C204.5 77.3203 204.219 77.2969 203.906 77.2969C203.406 77.2969 202.891 77.4062 202.359 77.625C201.797 78.5 201.125 79.7422 200.344 81.3516C199.562 82.9453 198.781 84.8281 198 87C199.031 86.9219 200.039 86.875 201.023 86.8594C202.023 86.8281 202.984 86.8125 203.906 86.8125ZM243.375 72.2812C245.734 72.2812 247.961 72.4922 250.055 72.9141C252.148 73.3359 253.977 73.9219 255.539 74.6719C257.117 75.4219 258.367 76.3203 259.289 77.3672C260.211 78.4141 260.672 79.5625 260.672 80.8125V84.6094H254.578V82.5938C254.578 81.9219 254.32 81.2812 253.805 80.6719C253.289 80.0625 252.547 79.5234 251.578 79.0547C250.625 78.5859 249.453 78.2188 248.062 77.9531C246.688 77.6719 245.125 77.5312 243.375 77.5312C241.688 77.5312 240.156 77.6641 238.781 77.9297C237.406 78.1953 236.227 78.5547 235.242 79.0078C234.258 79.4609 233.5 80 232.969 80.625C232.438 81.2344 232.172 81.8906 232.172 82.5938V97.7812C232.172 98.4688 232.438 99.125 232.969 99.75C233.5 100.359 234.258 100.898 235.242 101.367C236.227 101.82 237.406 102.18 238.781 102.445C240.156 102.711 241.688 102.844 243.375 102.844C245.125 102.844 246.688 102.711 248.062 102.445C249.453 102.164 250.625 101.789 251.578 101.32C252.547 100.852 253.289 100.312 253.805 99.7031C254.32 99.0938 254.578 98.4531 254.578 97.7812V94.4062C253.125 94.4062 251.82 94.4453 250.664 94.5234C249.523 94.6016 248.547 94.6797 247.734 94.7578C246.781 94.8672 245.938 94.9844 245.203 95.1094L245.812 89.4375C248.203 89.25 250.453 89.1562 252.562 89.1562C255.391 89.1562 258.094 89.2969 260.672 89.5781V99.5625C260.672 100.812 260.211 101.961 259.289 103.008C258.367 104.039 257.117 104.93 255.539 105.68C253.977 106.43 252.148 107.016 250.055 107.438C247.961 107.844 245.734 108.047 243.375 108.047C241.016 108.047 238.789 107.844 236.695 107.438C234.602 107.016 232.766 106.43 231.188 105.68C229.625 104.93 228.383 104.039 227.461 103.008C226.539 101.961 226.078 100.812 226.078 99.5625V80.8125C226.078 79.5625 226.539 78.4141 227.461 77.3672C228.383 76.3203 229.625 75.4219 231.188 74.6719C232.766 73.9219 234.602 73.3359 236.695 72.9141C238.789 72.4922 241.016 72.2812 243.375 72.2812Z" fill="black"/>
<path d="M43.632 77.616V79.116H45.132V77.616H43.632ZM37.776 77.616H36.276V79.116H37.776V77.616ZM37.776 73.872V72.372H36.276V73.872H37.776ZM43.632 73.872H45.132V72.372H43.632V73.872ZM32.592 77.616V79.116H34.092V77.616H32.592ZM26.88 77.616H25.38V79.116H26.88V77.616ZM26.88 73.872V72.372H25.38V73.872H26.88ZM32.592 73.872H34.092V72.372H32.592V73.872ZM21.696 77.616V79.116H23.196V77.616H21.696ZM16.08 77.616H14.58V79.116H16.08V77.616ZM16.08 73.872V72.372H14.58V73.872H16.08ZM21.696 73.872H23.196V72.372H21.696V73.872ZM49.344 68.88H50.844V67.38H49.344V68.88ZM10.608 68.88V67.38H9.108V68.88H10.608ZM10.608 82.608H9.108V84.108H10.608V82.608ZM49.344 82.608V84.108H50.844V82.608H49.344ZM33.264 82.896L33.8744 81.5258L32.9099 81.0962L32.18 81.8592L33.264 82.896ZM19.968 91.44L18.5006 91.7513L18.8724 93.5036L20.5322 92.8298L19.968 91.44ZM19.152 86.736L17.6582 86.6002L17.6411 86.7883L17.6711 86.9748L19.152 86.736ZM19.344 83.664L20.8423 83.7353L20.9171 82.164H19.344V83.664ZM13.92 83.664V82.164H12.4846L12.4215 83.598L13.92 83.664ZM7.248 108L6.15724 106.97L4.93749 108.262L6.41595 109.248L7.248 108ZM11.376 112.176L10.1412 113.028L11.2226 114.596L12.4934 113.177L11.376 112.176ZM17.184 100.224L18.6151 99.7747L17.0353 94.7428L15.7306 99.8529L17.184 100.224ZM22.752 110.976L21.6439 111.987L23.0964 113.579L24.0849 111.664L22.752 110.976ZM26.544 106.128L27.5576 107.234L28.7554 106.136L27.5653 105.029L26.544 106.128ZM20.064 92.016L21.1247 90.9553L17.533 87.3637L18.5973 92.3303L20.064 92.016ZM23.568 96.192L22.368 97.092L23.1191 98.0935L24.2388 97.5336L23.568 96.192ZM27.216 94.176H28.716V91.5789L26.4664 92.8767L27.216 94.176ZM27.216 112.032H25.716V113.532H27.216V112.032ZM32.832 112.032V113.532H34.332V112.032H32.832ZM32.832 90.336L31.9148 89.1491L31.332 89.5994V90.336H32.832ZM38.544 85.248L39.6497 86.2616L41.0577 84.7256L39.1544 83.8778L38.544 85.248ZM39.84 83.616V82.116H38.4154L38.342 83.5387L39.84 83.616ZM33.168 107.952L32.0608 106.94L30.8727 108.24L32.345 109.206L33.168 107.952ZM37.392 112.176L36.1572 113.028L37.2589 114.625L38.5272 113.156L37.392 112.176ZM43.056 100.608L44.4995 100.2L43.006 94.9156L41.6056 100.225L43.056 100.608ZM48.864 112.176L47.759 113.19L49.1575 114.714L50.1714 112.911L48.864 112.176ZM52.752 107.28L53.7676 108.384L54.9735 107.274L53.7621 106.171L52.752 107.28ZM45.168 86.832L43.6694 86.7668L43.6642 86.8871L43.6782 87.0067L45.168 86.832ZM45.36 83.616L46.8585 83.6841L46.9297 82.116H45.36V83.616ZM43.632 76.116H37.776V79.116H43.632V76.116ZM39.276 77.616V73.872H36.276V77.616H39.276ZM37.776 75.372H43.632V72.372H37.776V75.372ZM42.132 73.872V77.616H45.132V73.872H42.132ZM32.592 76.116H26.88V79.116H32.592V76.116ZM28.38 77.616V73.872H25.38V77.616H28.38ZM26.88 75.372H32.592V72.372H26.88V75.372ZM31.092 73.872V77.616H34.092V73.872H31.092ZM21.696 76.116H16.08V79.116H21.696V76.116ZM17.58 77.616V73.872H14.58V77.616H17.58ZM16.08 75.372H21.696V72.372H16.08V75.372ZM20.196 73.872V77.616H23.196V73.872H20.196ZM49.344 67.38H10.608V70.38H49.344V67.38ZM9.108 68.88V82.608H12.108V68.88H9.108ZM10.608 84.108H49.344V81.108H10.608V84.108ZM50.844 82.608V68.88H47.844V82.608H50.844ZM32.18 81.8592C29.1983 84.9764 24.1172 88.1368 19.4038 90.0501L20.5322 92.8298C25.5148 90.8072 30.9937 87.4396 34.348 83.9328L32.18 81.8592ZM21.4354 91.1287C21.1093 89.5917 20.8775 88.0141 20.6329 86.4972L17.6711 86.9748C17.9065 88.4339 18.1547 90.1203 18.5006 91.7513L21.4354 91.1287ZM20.6458 86.8718C20.7452 85.7787 20.7945 84.7392 20.8423 83.7353L17.8457 83.5926C17.7975 84.6048 17.7508 85.5813 17.6582 86.6002L20.6458 86.8718ZM19.344 82.164H13.92V85.164H19.344V82.164ZM12.4215 83.598C12.2534 87.4151 12.0041 91.8887 11.1139 96.1363C10.2206 100.399 8.71477 104.261 6.15724 106.97L8.33876 109.03C11.4452 105.739 13.1074 101.249 14.0501 96.7517C14.9959 92.2393 15.2506 87.5449 15.4185 83.73L12.4215 83.598ZM6.41595 109.248C7.66564 110.081 9.26475 111.757 10.1412 113.028L12.6108 111.324C11.5672 109.811 9.71036 107.839 8.08005 106.752L6.41595 109.248ZM12.4934 113.177C15.598 109.71 17.4548 105.227 18.6374 100.595L15.7306 99.8529C14.6092 104.245 12.914 108.21 10.2586 111.175L12.4934 113.177ZM15.7529 100.673C17.0749 104.884 18.9321 109.014 21.6439 111.987L23.8601 109.965C21.5799 107.466 19.8851 103.82 18.6151 99.7747L15.7529 100.673ZM24.0849 111.664C24.7567 110.362 26.5089 108.195 27.5576 107.234L25.5304 105.022C24.2751 106.173 22.2833 108.614 21.4191 110.288L24.0849 111.664ZM27.5653 105.029C24.5249 102.203 22.6767 97.0496 21.5307 91.7017L18.5973 92.3303C19.7553 97.7344 21.7471 103.717 25.5227 107.227L27.5653 105.029ZM19.0033 93.0767C20.1225 94.1958 21.6526 96.1381 22.368 97.092L24.768 95.292C24.0434 94.3259 22.4055 92.2362 21.1247 90.9553L19.0033 93.0767ZM24.2388 97.5336C25.4386 96.9338 26.7273 96.1897 27.9656 95.4753L26.4664 92.8767C25.2087 93.6023 24.0015 94.2982 22.8972 94.8504L24.2388 97.5336ZM25.716 94.176V112.032H28.716V94.176H25.716ZM27.216 113.532H32.832V110.532H27.216V113.532ZM34.332 112.032V90.336H31.332V112.032H34.332ZM33.7492 91.5229C35.8922 89.8669 37.9834 88.0794 39.6497 86.2616L37.4383 84.2344C35.9366 85.8726 33.9958 87.5411 31.9148 89.1491L33.7492 91.5229ZM39.1544 83.8778L33.8744 81.5258L32.6536 84.2662L37.9336 86.6182L39.1544 83.8778ZM38.342 83.5387C38.1497 87.2644 37.889 91.7046 36.9978 95.9627C36.1036 100.235 34.6067 104.155 32.0608 106.94L34.2752 108.964C37.3453 105.605 38.9924 101.077 39.9342 96.5773C40.879 92.0634 41.1463 87.4076 41.338 83.6933L38.342 83.5387ZM32.345 109.206C33.6875 110.087 35.2835 111.761 36.1572 113.028L38.6268 111.324C37.5805 109.807 35.7205 107.833 33.991 106.698L32.345 109.206ZM38.5272 113.156C41.4615 109.759 43.319 105.493 44.5064 100.991L41.6056 100.225C40.489 104.459 38.7945 108.257 36.2568 111.196L38.5272 113.156ZM41.6125 101.016C42.8891 105.533 44.8432 110.014 47.759 113.19L49.969 111.162C47.5088 108.482 45.7189 104.515 44.4995 100.2L41.6125 101.016ZM50.1714 112.911C50.954 111.52 52.6773 109.387 53.7676 108.384L51.7364 106.176C50.4268 107.381 48.5021 109.76 47.5566 111.441L50.1714 112.911ZM53.7621 106.171C51.6203 104.22 50.0309 101.138 48.8758 97.5503C47.7294 93.9894 47.06 90.0878 46.6578 86.6573L43.6782 87.0067C44.092 90.5362 44.7906 94.6506 46.0202 98.4697C47.2411 102.262 49.0357 105.924 51.7419 108.389L53.7621 106.171ZM46.6666 86.8972C46.6897 86.3655 46.7245 85.8424 46.7606 85.3069C46.7963 84.7768 46.8336 84.2316 46.8585 83.6841L43.8615 83.5479C43.8384 84.0564 43.8037 84.5672 43.7674 85.1051C43.7315 85.6375 43.6943 86.1945 43.6694 86.7668L46.6666 86.8972ZM45.36 82.116H39.84V85.116H45.36V82.116ZM55.968 98.832L57.4358 98.523L57.4347 98.5177L55.968 98.832ZM55.68 97.488L54.2125 97.7984L54.2133 97.8023L55.68 97.488ZM57.168 92.976L56.1131 91.9095L56.1073 91.9153L57.168 92.976ZM64.368 82.56L65.7306 83.1872L65.7465 83.1525L65.7607 83.1171L64.368 82.56ZM64.752 81.936L63.6913 80.8753L63.616 80.9507L63.552 81.036L64.752 81.936ZM64.8 81.744L63.377 82.2183L63.4107 82.3195L63.4584 82.4148L64.8 81.744ZM61.248 69.792L62.276 70.8843L62.2926 70.8687L62.3087 70.8527L61.248 69.792ZM65.616 69.792L64.5237 70.82L64.5549 70.8531L64.588 70.8843L65.616 69.792ZM70.032 76.8L71.0927 75.7393L71.0927 75.7393L70.032 76.8ZM69.552 81.216L68.7528 79.9466L68.7362 79.9571L68.7199 79.9679L69.552 81.216ZM69.456 81.648L70.6321 80.7169L70.6273 80.711L69.456 81.648ZM69.792 84.096L71.1471 84.7391L71.1551 84.7223L71.1627 84.7052L69.792 84.096ZM66.72 89.52L67.9406 90.3919L67.9547 90.3722L67.9681 90.352L66.72 89.52ZM66.72 90.192L67.9681 89.3599L67.9547 89.3398L67.9406 89.3201L66.72 90.192ZM67.056 90.576L65.9953 91.6367L65.9953 91.6367L67.056 90.576ZM67.392 90.96L66.1439 91.7921L66.2263 91.9156L66.3313 92.0207L67.392 90.96ZM67.872 90.96L66.6359 90.1102L66.6299 90.119L66.6239 90.128L67.872 90.96ZM69.408 88.608L68.1166 87.8449L68.1151 87.8475L69.408 88.608ZM71.232 87.456V85.956H71.1721L71.1124 85.9608L71.232 87.456ZM72.432 70.56L71.3713 69.4993L71.3553 69.5154L71.3397 69.532L72.432 70.56ZM98.352 70.56L97.2913 71.6207L97.2913 71.6207L98.352 70.56ZM98.352 92.16L97.2913 91.0993L97.2913 91.0993L98.352 92.16ZM99.072 97.68L97.9754 98.7035L98.0107 98.7413L98.0485 98.7766L99.072 97.68ZM99.072 101.088L100.133 102.149L100.133 102.149L99.072 101.088ZM99.696 106.848L98.6353 107.909L98.6524 107.926L98.6701 107.942L99.696 106.848ZM99.696 110.448L98.6353 109.387L98.6353 109.387L99.696 110.448ZM69.984 110.448L68.8897 111.474L68.9062 111.492L68.9233 111.509L69.984 110.448ZM69.984 106.848L68.9233 105.787L68.9233 105.787L69.984 106.848ZM72.096 101.088L70.9994 102.111L71.0347 102.149L71.0725 102.185L72.096 101.088ZM72.096 97.68L71.0353 96.6193L71.0353 96.6193L72.096 97.68ZM72.624 92.304L71.5633 93.3647L71.6145 93.4159L71.6704 93.4619L72.624 92.304ZM72.096 92.304L73.3441 93.136L73.3727 93.0931L73.3984 93.0482L72.096 92.304ZM70.656 94.416L69.4354 93.5441L69.4354 93.5441L70.656 94.416ZM70.656 95.04L69.5037 96.0003L69.5472 96.0525L69.5953 96.1007L70.656 95.04ZM70.896 95.328L69.696 96.228L69.76 96.3133L69.8353 96.3887L70.896 95.328ZM71.088 95.568L69.7464 96.2388L69.8008 96.3476L69.872 96.4462L71.088 95.568ZM71.664 97.536L73.1626 97.6012L73.1626 97.6012L71.664 97.536ZM70.896 99.456L71.9926 100.479L72.0069 100.464L72.0208 100.448L70.896 99.456ZM69.216 100.128L69.1411 101.626L69.1447 101.626L69.216 100.128ZM67.68 99.264L68.9055 98.399L68.8314 98.2941L68.7407 98.2033L67.68 99.264ZM66.672 97.92L65.3304 98.5908L65.3908 98.7118L65.472 98.82L66.672 97.92ZM65.616 111.648L64.588 110.556L64.5549 110.587L64.5237 110.62L65.616 111.648ZM61.248 111.648L62.3087 110.587L62.2926 110.571L62.276 110.556L61.248 111.648ZM60.288 97.92L59.6172 99.2616L59.7125 99.3093L59.8137 99.343L60.288 97.92ZM60.144 97.968L61.2406 98.9915L61.3886 98.8329L61.4856 98.6388L60.144 97.968ZM58.512 99.696L59.5327 100.795L59.553 100.776L59.5727 100.757L58.512 99.696ZM56.976 100.032L56.4768 101.446L56.4892 101.451L56.5017 101.455L56.976 100.032ZM57.4347 98.5177L57.1467 97.1737L54.2133 97.8023L54.5013 99.1463L57.4347 98.5177ZM57.1475 97.1776C56.9143 96.0751 57.1937 95.0716 58.2287 94.0367L56.1073 91.9153C54.4543 93.5684 53.7417 95.5729 54.2125 97.7984L57.1475 97.1776ZM58.2228 94.0424C61.3039 90.9948 63.8047 87.3711 65.7306 83.1872L63.0054 81.9328C61.2193 85.8129 58.9201 89.1332 56.1132 91.9096L58.2228 94.0424ZM65.7607 83.1171C65.7508 83.1418 65.7534 83.1287 65.7895 83.0701C65.8234 83.0151 65.8756 82.9378 65.952 82.836L63.552 81.036C63.3362 81.3238 63.1134 81.6575 62.9753 82.0029L65.7607 83.1171ZM65.8127 82.9967C65.9682 82.8411 66.1731 82.5801 66.2672 82.2038C66.3697 81.794 66.3032 81.3962 66.1416 81.0732L63.4584 82.4148C63.3288 82.1558 63.2703 81.822 63.3568 81.4762C63.4349 81.1639 63.5998 80.9669 63.6913 80.8753L65.8127 82.9967ZM66.223 81.2696C66.1257 80.9777 65.7164 80.1 64.656 80.1V83.1C64.2642 83.1 63.9177 82.935 63.6793 82.6967C63.4778 82.4951 63.4015 82.2918 63.377 82.2183L66.223 81.2696ZM64.656 80.1H58.704V83.1H64.656V80.1ZM58.704 80.1C58.3855 80.1 58.1216 80.0002 57.8447 79.7233L55.7233 81.8447C56.5344 82.6558 57.5505 83.1 58.704 83.1V80.1ZM57.8447 79.7233C57.5678 79.4464 57.468 79.1825 57.468 78.864H54.468C54.468 80.0175 54.9122 81.0335 55.7233 81.8447L57.8447 79.7233ZM57.468 78.864V78.72H54.468V78.864H57.468ZM57.468 78.72C57.468 78.4015 57.5678 78.1375 57.8447 77.8607L55.7233 75.7393C54.9122 76.5504 54.468 77.5665 54.468 78.72H57.468ZM57.8447 77.8607C58.1216 77.5838 58.3855 77.484 58.704 77.484V74.484C57.5505 74.484 56.5344 74.9282 55.7233 75.7393L57.8447 77.8607ZM58.704 77.484H60.048V74.484H58.704V77.484ZM60.048 77.484C60.4072 77.484 60.9521 77.3932 61.3967 76.9487C61.8412 76.5041 61.932 75.9592 61.932 75.6H58.932C58.932 75.4968 58.9588 75.1439 59.2753 74.8273C59.5919 74.5108 59.9448 74.484 60.048 74.484V77.484ZM61.932 75.6V71.664H58.932V75.6H61.932ZM61.932 71.664C61.932 71.3486 62.0281 71.1177 62.276 70.8843L60.22 68.6997C59.3799 69.4903 58.932 70.5074 58.932 71.664H61.932ZM62.3087 70.8527C62.5855 70.5758 62.8495 70.476 63.168 70.476V67.476C62.0145 67.476 60.9985 67.9202 60.1873 68.7313L62.3087 70.8527ZM63.168 70.476H63.744V67.476H63.168V70.476ZM63.744 70.476C64.0594 70.476 64.2903 70.5721 64.5237 70.82L66.7083 68.7639C65.9177 67.9239 64.9006 67.476 63.744 67.476V70.476ZM64.588 70.8843C64.8359 71.1177 64.932 71.3486 64.932 71.664H67.932C67.932 70.5074 67.4841 69.4903 66.644 68.6997L64.588 70.8843ZM64.932 71.664V75.6H67.932V71.664H64.932ZM64.932 75.6C64.932 76.008 65.0549 76.5748 65.5435 77.0091C65.9984 77.4135 66.5295 77.484 66.864 77.484V74.484C66.9105 74.484 67.2256 74.4905 67.5365 74.7669C67.8811 75.0732 67.932 75.448 67.932 75.6H64.932ZM66.864 77.484H68.112V74.484H66.864V77.484ZM68.112 77.484C68.4305 77.484 68.6944 77.5838 68.9713 77.8607L71.0927 75.7393C70.2816 74.9282 69.2655 74.484 68.112 74.484V77.484ZM68.9713 77.8607C69.2482 78.1375 69.348 78.4015 69.348 78.72H72.348C72.348 77.5665 71.9038 76.5504 71.0927 75.7393L68.9713 77.8607ZM69.348 78.72V78.864H72.348V78.72H69.348ZM69.348 78.864C69.348 79.3744 69.1791 79.6783 68.7528 79.9466L70.3512 82.4853C71.6529 81.6657 72.348 80.4016 72.348 78.864H69.348ZM68.7199 79.9679C68.4774 80.1296 68.0563 80.4801 67.9197 81.0946C67.7708 81.7647 68.0534 82.2959 68.2847 82.585L70.6273 80.711C70.7306 80.8401 70.9652 81.2193 70.8483 81.7454C70.7437 82.2159 70.4346 82.4304 70.3841 82.4641L68.7199 79.9679ZM68.2799 82.5791C68.4491 82.7928 68.4968 82.9441 68.5099 83.04C68.5226 83.1325 68.5171 83.2713 68.4213 83.4868L71.1627 84.7052C71.451 84.0567 71.5814 83.3555 71.4821 82.632C71.3832 81.9119 71.0709 81.2712 70.6321 80.7169L68.2799 82.5791ZM68.4369 83.4529C67.5717 85.2758 66.5835 87.0206 65.4719 88.6879L67.9681 90.352C69.1605 88.5634 70.2203 86.6922 71.1471 84.7391L68.4369 83.4529ZM65.4994 88.6481C65.2799 88.9554 65.1 89.3658 65.1 89.856C65.1 90.3462 65.2799 90.7566 65.4994 91.0639L67.9406 89.3201C68.0001 89.4034 68.1 89.5898 68.1 89.856C68.1 90.1222 68.0001 90.3086 67.9406 90.3919L65.4994 88.6481ZM65.4719 91.0241C65.6207 91.2472 65.8186 91.4599 65.9953 91.6367L68.1167 89.5153C68.053 89.4517 68.0092 89.4046 67.9809 89.3722C67.9498 89.3367 67.9512 89.3346 67.9681 89.3599L65.4719 91.0241ZM65.9953 91.6367C66.059 91.7003 66.1028 91.7474 66.1311 91.7798C66.1622 91.8153 66.1608 91.8174 66.1439 91.7921L68.6401 90.1279C68.4913 89.9048 68.2934 89.6921 68.1167 89.5153L65.9953 91.6367ZM66.3313 92.0207C66.5247 92.214 66.9774 92.604 67.656 92.604C68.4366 92.604 68.9102 92.1068 69.1201 91.792L66.6239 90.128C66.7058 90.0052 67.0354 89.604 67.656 89.604C68.1746 89.604 68.4513 89.898 68.4527 89.8993L66.3313 92.0207ZM69.1081 91.8098C69.8169 90.7788 70.3532 89.9596 70.7009 89.3685L68.1151 87.8475C67.8228 88.3444 67.3351 89.0932 66.6359 90.1102L69.1081 91.8098ZM70.6994 89.3711C70.8727 89.0777 71.0489 88.9754 71.3516 88.9512L71.1124 85.9608C69.8151 86.0646 68.7753 86.7303 68.1166 87.8449L70.6994 89.3711ZM71.232 88.956C71.5665 88.956 72.0976 88.8855 72.5525 88.4811C73.0411 88.0468 73.164 87.48 73.164 87.072H70.164C70.164 86.92 70.2149 86.5452 70.5595 86.2389C70.8704 85.9625 71.1855 85.956 71.232 85.956V88.956ZM73.164 87.072V72.48H70.164V87.072H73.164ZM73.164 72.48C73.164 72.1324 73.2698 71.8584 73.5243 71.588L71.3397 69.532C70.5702 70.3496 70.164 71.3556 70.164 72.48H73.164ZM73.4927 71.6207C73.7696 71.3438 74.0335 71.244 74.352 71.244V68.244C73.1985 68.244 72.1825 68.6882 71.3713 69.4993L73.4927 71.6207ZM74.352 71.244H96.432V68.244H74.352V71.244ZM96.432 71.244C96.7505 71.244 97.0145 71.3438 97.2913 71.6207L99.4127 69.4993C98.6016 68.6882 97.5855 68.244 96.432 68.244V71.244ZM97.2913 71.6207C97.5682 71.8975 97.668 72.1615 97.668 72.48H100.668C100.668 71.3265 100.224 70.3104 99.4127 69.4993L97.2913 71.6207ZM97.668 72.48V90.24H100.668V72.48H97.668ZM97.668 90.24C97.668 90.5585 97.5682 90.8224 97.2913 91.0993L99.4127 93.2207C100.224 92.4096 100.668 91.3935 100.668 90.24H97.668ZM97.2913 91.0993C97.0145 91.3762 96.7505 91.476 96.432 91.476V94.476C97.5855 94.476 98.6016 94.0318 99.4127 93.2207L97.2913 91.0993ZM96.432 91.476H88.944V94.476H96.432V91.476ZM88.944 91.476C88.6095 91.476 88.0784 91.5465 87.6235 91.9509C87.1349 92.3852 87.012 92.952 87.012 93.36H90.012C90.012 93.512 89.9611 93.8868 89.6165 94.1931C89.3056 94.4695 88.9905 94.476 88.944 94.476V91.476ZM87.012 93.36V96.528H90.012V93.36H87.012ZM87.012 96.528C87.012 96.9032 87.1068 97.4601 87.5593 97.9127C88.0119 98.3652 88.5688 98.46 88.944 98.46V95.46C89.0312 95.46 89.3721 95.4828 89.6807 95.7913C89.9892 96.0999 90.012 96.4408 90.012 96.528H87.012ZM88.944 98.46H97.392V95.46H88.944V98.46ZM97.392 98.46C97.6593 98.46 97.8186 98.5354 97.9754 98.7035L100.169 96.6565C99.4294 95.8646 98.4687 95.46 97.392 95.46V98.46ZM98.0485 98.7766C98.2166 98.9334 98.292 99.0927 98.292 99.36H101.292C101.292 98.2833 100.887 97.3226 100.095 96.5834L98.0485 98.7766ZM98.292 99.36C98.292 99.6297 98.2132 99.8254 98.0113 100.027L100.133 102.149C100.891 101.391 101.292 100.434 101.292 99.36H98.292ZM98.0113 100.027C97.863 100.176 97.693 100.26 97.392 100.26V103.26C98.435 103.26 99.385 102.896 100.133 102.149L98.0113 100.027ZM97.392 100.26H88.944V103.26H97.392V100.26ZM88.944 100.26C88.6095 100.26 88.0784 100.331 87.6235 100.735C87.1349 101.169 87.012 101.736 87.012 102.144H90.012C90.012 102.296 89.9611 102.671 89.6165 102.977C89.3056 103.253 88.9905 103.26 88.944 103.26V100.26ZM87.012 102.144V105.648H90.012V102.144H87.012ZM87.012 105.648C87.012 106.023 87.1068 106.58 87.5593 107.033C88.0119 107.485 88.5688 107.58 88.944 107.58V104.58C89.0312 104.58 89.3721 104.603 89.6807 104.911C89.9892 105.22 90.012 105.561 90.012 105.648H87.012ZM88.944 107.58H97.872V104.58H88.944V107.58ZM97.872 107.58C98.1657 107.58 98.3957 107.669 98.6353 107.909L100.757 105.787C99.9723 105.003 98.9863 104.58 97.872 104.58V107.58ZM98.6701 107.942C98.8785 108.138 98.964 108.333 98.964 108.624H101.964C101.964 107.507 101.537 106.518 100.722 105.754L98.6701 107.942ZM98.964 108.624C98.964 108.918 98.875 109.148 98.6353 109.387L100.757 111.509C101.541 110.724 101.964 109.738 101.964 108.624H98.964ZM98.6353 109.387C98.3957 109.627 98.1657 109.716 97.872 109.716V112.716C98.9863 112.716 99.9723 112.293 100.757 111.509L98.6353 109.387ZM97.872 109.716H71.808V112.716H97.872V109.716ZM71.808 109.716C71.5143 109.716 71.2843 109.627 71.0447 109.387L68.9233 111.509C69.7077 112.293 70.6937 112.716 71.808 112.716V109.716ZM71.0783 109.422C70.8599 109.189 70.764 108.948 70.764 108.624H67.764C67.764 109.708 68.1481 110.683 68.8897 111.474L71.0783 109.422ZM70.764 108.624C70.764 108.301 70.8574 108.096 71.0447 107.909L68.9233 105.787C68.1506 106.56 67.764 107.539 67.764 108.624H70.764ZM71.0447 107.909C71.2843 107.669 71.5143 107.58 71.808 107.58V104.58C70.6937 104.58 69.7077 105.003 68.9233 105.787L71.0447 107.909ZM71.808 107.58H81.888V104.58H71.808V107.58ZM81.888 107.58C82.296 107.58 82.8628 107.457 83.2971 106.969C83.7015 106.514 83.772 105.983 83.772 105.648H80.772C80.772 105.601 80.7785 105.286 81.0549 104.975C81.3612 104.631 81.736 104.58 81.888 104.58V107.58ZM83.772 105.648V102.144H80.772V105.648H83.772ZM83.772 102.144C83.772 101.785 83.6812 101.24 83.2367 100.795C82.7921 100.351 82.2472 100.26 81.888 100.26V103.26C81.7848 103.26 81.4319 103.233 81.1153 102.917C80.7988 102.6 80.772 102.247 80.772 102.144H83.772ZM81.888 100.26H73.824V103.26H81.888V100.26ZM73.824 100.26C73.5221 100.26 73.3146 100.174 73.1195 99.9914L71.0725 102.185C71.8374 102.898 72.782 103.26 73.824 103.26V100.26ZM73.1926 100.065C73.0105 99.8694 72.924 99.6619 72.924 99.36H69.924C69.924 100.402 70.2855 101.347 70.9994 102.111L73.1926 100.065ZM72.924 99.36C72.924 99.059 73.0084 98.889 73.1567 98.7407L71.0353 96.6193C70.2876 97.367 69.924 98.317 69.924 99.36H72.924ZM73.1567 98.7407C73.3586 98.5388 73.5543 98.46 73.824 98.46V95.46C72.7497 95.46 71.7934 95.8612 71.0353 96.6193L73.1567 98.7407ZM73.824 98.46H81.888V95.46H73.824V98.46ZM81.888 98.46C82.296 98.46 82.8628 98.3371 83.2971 97.8485C83.7015 97.3936 83.772 96.8625 83.772 96.528H80.772C80.772 96.4815 80.7785 96.1664 81.0549 95.8555C81.3612 95.5109 81.736 95.46 81.888 95.46V98.46ZM83.772 96.528V93.36H80.772V96.528H83.772ZM83.772 93.36C83.772 93.0008 83.6812 92.4559 83.2367 92.0113C82.7921 91.5668 82.2472 91.476 81.888 91.476V94.476C81.7848 94.476 81.4319 94.4492 81.1153 94.1327C80.7988 93.8161 80.772 93.4632 80.772 93.36H83.772ZM81.888 91.476H77.232V94.476H81.888V91.476ZM77.232 91.476H74.352V94.476H77.232V91.476ZM74.352 91.476C74.146 91.476 73.8979 91.4099 73.5776 91.1461L71.6704 93.4619C72.4381 94.0941 73.342 94.476 74.352 94.476V91.476ZM73.6847 91.2433C73.4968 91.0555 73.028 90.636 72.324 90.636C71.4694 90.636 70.9879 91.2198 70.7936 91.5598L73.3984 93.0482C73.3321 93.1642 73.0026 93.636 72.324 93.636C72.0452 93.636 71.8402 93.5473 71.7321 93.4868C71.626 93.4274 71.5705 93.3718 71.5633 93.3647L73.6847 91.2433ZM70.8479 91.4719C70.2094 92.4297 69.7406 93.1169 69.4354 93.5441L71.8766 95.2879C72.2114 94.8191 72.7026 94.0983 73.3441 93.136L70.8479 91.4719ZM69.4354 93.5441C69.2319 93.8291 69.036 94.2363 69.036 94.74C69.036 95.2621 69.2462 95.6913 69.5037 96.0003L71.8083 94.0797C71.9058 94.1967 72.036 94.4258 72.036 94.74C72.036 95.0357 71.9201 95.2269 71.8766 95.2879L69.4354 93.5441ZM69.5953 96.1007C69.5858 96.0912 69.5907 96.0951 69.6117 96.1203C69.6315 96.1441 69.6594 96.1791 69.696 96.228L72.096 94.428C71.9844 94.2792 71.8549 94.1176 71.7167 93.9793L69.5953 96.1007ZM69.8353 96.3887C69.8559 96.4093 69.8563 96.4115 69.8447 96.397C69.8384 96.3891 69.8259 96.373 69.8099 96.349C69.7943 96.3256 69.7712 96.2885 69.7464 96.2388L72.4296 94.8972C72.2871 94.6121 72.0836 94.3943 71.9567 94.2673L69.8353 96.3887ZM69.872 96.4462C70.0826 96.7378 70.1833 97.0587 70.1654 97.4708L73.1626 97.6012C73.2087 96.5413 72.9254 95.5502 72.304 94.6898L69.872 96.4462ZM70.1654 97.4708C70.1481 97.8699 70.0205 98.1811 69.7712 98.4636L72.0208 100.448C72.7315 99.6429 73.1159 98.6741 73.1626 97.6012L70.1654 97.4708ZM69.7994 98.4325C69.6605 98.5814 69.5317 98.6413 69.2873 98.6297L69.1447 101.626C70.2443 101.679 71.2355 101.291 71.9926 100.479L69.7994 98.4325ZM69.2909 98.6299C69.1319 98.6219 69.0357 98.5835 68.9055 98.399L66.4545 100.129C67.0923 101.033 68.0201 101.57 69.1411 101.626L69.2909 98.6299ZM68.7407 98.2033C68.741 98.2037 68.7386 98.2012 68.7331 98.1953C68.7276 98.1894 68.7201 98.1809 68.7102 98.1696C68.6903 98.1465 68.6642 98.1149 68.6315 98.0733C68.5655 97.9893 68.4824 97.8768 68.3808 97.7318L65.9232 99.4522C66.1536 99.7813 66.3923 100.098 66.6193 100.325L68.7407 98.2033ZM68.3808 97.7318C68.157 97.412 67.9843 97.1698 67.872 97.02L65.472 98.82C65.5517 98.9262 65.699 99.132 65.9232 99.4522L68.3808 97.7318ZM68.0136 97.2492C67.8942 97.0104 67.6209 96.6152 67.0863 96.437C66.5518 96.2588 66.096 96.411 65.8572 96.5304L67.1988 99.2136C67.024 99.301 66.6242 99.4452 66.1377 99.283C65.6511 99.1208 65.4178 98.7656 65.3304 98.5908L68.0136 97.2492ZM65.8572 96.5304C65.6472 96.6353 65.3997 96.8123 65.2079 97.0999C65.0099 97.3969 64.932 97.7215 64.932 98.016H67.932C67.932 98.2465 67.8701 98.5151 67.7041 98.764C67.5443 99.0037 67.3448 99.1407 67.1988 99.2136L65.8572 96.5304ZM64.932 98.016V109.776H67.932V98.016H64.932ZM64.932 109.776C64.932 110.091 64.8359 110.322 64.588 110.556L66.644 112.74C67.4841 111.95 67.932 110.933 67.932 109.776H64.932ZM64.5237 110.62C64.2903 110.868 64.0594 110.964 63.744 110.964V113.964C64.9006 113.964 65.9177 113.516 66.7083 112.676L64.5237 110.62ZM63.744 110.964H63.168V113.964H63.744V110.964ZM63.168 110.964C62.8495 110.964 62.5856 110.864 62.3087 110.587L60.1873 112.709C60.9985 113.52 62.0145 113.964 63.168 113.964V110.964ZM62.276 110.556C62.0281 110.322 61.932 110.091 61.932 109.776H58.932C58.932 110.933 59.3799 111.95 60.22 112.74L62.276 110.556ZM61.932 109.776V98.064H58.932V109.776H61.932ZM61.932 98.064C61.932 97.0036 61.0543 96.5943 60.7623 96.497L59.8137 99.343C59.7402 99.3185 59.5369 99.2422 59.3353 99.0407C59.097 98.8023 58.932 98.4558 58.932 98.064H61.932ZM60.9588 96.5784C60.72 96.459 60.2642 96.3068 59.7297 96.485C59.1951 96.6631 58.9218 97.0584 58.8024 97.2972L61.4856 98.6388C61.3982 98.8136 61.1649 99.1689 60.6783 99.331C60.1918 99.4932 59.792 99.349 59.6172 99.2616L60.9588 96.5784ZM59.0474 96.9445C58.1426 97.9139 57.6204 98.4663 57.4513 98.6353L59.5727 100.757C59.7876 100.542 60.3534 99.9421 61.2406 98.9915L59.0474 96.9445ZM57.4913 98.5968C57.4591 98.6267 57.4418 98.6363 57.4411 98.6367C57.4407 98.6369 57.4435 98.6353 57.4494 98.6331C57.4553 98.6309 57.4628 98.6285 57.4715 98.6266C57.4801 98.6248 57.4882 98.6237 57.495 98.6232C57.5017 98.6228 57.5056 98.623 57.506 98.623C57.5071 98.6231 57.4895 98.622 57.4503 98.609L56.5017 101.455C57.0048 101.623 57.5532 101.68 58.1125 101.557C58.6713 101.435 59.1453 101.155 59.5327 100.795L57.4913 98.5968ZM57.4752 98.6175C57.4482 98.608 57.4404 98.6018 57.4443 98.6044C57.4488 98.6075 57.457 98.6142 57.4646 98.6232C57.4718 98.6318 57.4711 98.6337 57.4656 98.6218C57.4596 98.6089 57.4474 98.5782 57.4358 98.523L54.5002 99.141C54.726 100.214 55.3949 101.065 56.4768 101.446L57.4752 98.6175ZM87.012 75.12V78.816H90.012V75.12H87.012ZM87.012 78.816C87.012 79.1912 87.1068 79.7481 87.5593 80.2007C88.0119 80.6532 88.5688 80.748 88.944 80.748V77.748C89.0312 77.748 89.3721 77.7708 89.6807 78.0793C89.9892 78.3879 90.012 78.7288 90.012 78.816H87.012ZM88.944 80.748H93.024V77.748H88.944V80.748ZM93.024 80.748C93.432 80.748 93.9988 80.6251 94.4331 80.1365C94.8375 79.6816 94.908 79.1505 94.908 78.816H91.908C91.908 78.7695 91.9145 78.4544 92.1909 78.1435C92.4972 77.7989 92.872 77.748 93.024 77.748V80.748ZM94.908 78.816V75.12H91.908V78.816H94.908ZM94.908 75.12C94.908 74.7608 94.8172 74.2159 94.3727 73.7713C93.9281 73.3268 93.3832 73.236 93.024 73.236V76.236C92.9208 76.236 92.5679 76.2092 92.2513 75.8927C91.9348 75.5761 91.908 75.2232 91.908 75.12H94.908ZM93.024 73.236H88.944V76.236H93.024V73.236ZM88.944 73.236C88.6095 73.236 88.0784 73.3065 87.6235 73.7109C87.1349 74.1452 87.012 74.712 87.012 75.12H90.012C90.012 75.272 89.9611 75.6468 89.6165 75.9531C89.3056 76.2295 88.9905 76.236 88.944 76.236V73.236ZM87.012 83.952V87.792H90.012V83.952H87.012ZM87.012 87.792C87.012 88.1672 87.1068 88.7241 87.5593 89.1767C88.0119 89.6292 88.5688 89.724 88.944 89.724V86.724C89.0312 86.724 89.3721 86.7468 89.6807 87.0553C89.9892 87.3639 90.012 87.7048 90.012 87.792H87.012ZM88.944 89.724H93.024V86.724H88.944V89.724ZM93.024 89.724C93.432 89.724 93.9988 89.6011 94.4331 89.1125C94.8375 88.6576 94.908 88.1265 94.908 87.792H91.908C91.908 87.7455 91.9145 87.4304 92.1909 87.1195C92.4972 86.7749 92.872 86.724 93.024 86.724V89.724ZM94.908 87.792V83.952H91.908V87.792H94.908ZM94.908 83.952C94.908 83.6175 94.8375 83.0864 94.4331 82.6315C93.9988 82.1429 93.432 82.02 93.024 82.02V85.02C92.872 85.02 92.4972 84.9691 92.1909 84.6245C91.9145 84.3136 91.908 83.9985 91.908 83.952H94.908ZM93.024 82.02H88.944V85.02H93.024V82.02ZM88.944 82.02C88.5688 82.02 88.0119 82.1148 87.5593 82.5673C87.1068 83.0199 87.012 83.5768 87.012 83.952H90.012C90.012 84.0392 89.9892 84.3801 89.6807 84.6887C89.3721 84.9972 89.0312 85.02 88.944 85.02V82.02ZM75.732 75.12V78.816H78.732V75.12H75.732ZM75.732 78.816C75.732 79.1912 75.8268 79.7481 76.2793 80.2007C76.7319 80.6532 77.2888 80.748 77.664 80.748V77.748C77.7512 77.748 78.0921 77.7708 78.4007 78.0793C78.7092 78.3879 78.732 78.7288 78.732 78.816H75.732ZM77.664 80.748H81.888V77.748H77.664V80.748ZM81.888 80.748C82.296 80.748 82.8628 80.6251 83.2971 80.1365C83.7015 79.6816 83.772 79.1505 83.772 78.816H80.772C80.772 78.7695 80.7785 78.4544 81.0549 78.1435C81.3612 77.7989 81.736 77.748 81.888 77.748V80.748ZM83.772 78.816V75.12H80.772V78.816H83.772ZM83.772 75.12C83.772 74.7608 83.6812 74.2159 83.2367 73.7713C82.7921 73.3268 82.2472 73.236 81.888 73.236V76.236C81.7848 76.236 81.4319 76.2092 81.1153 75.8927C80.7988 75.5761 80.772 75.2232 80.772 75.12H83.772ZM81.888 73.236H77.664V76.236H81.888V73.236ZM77.664 73.236C77.3295 73.236 76.7984 73.3065 76.3435 73.7109C75.8549 74.1452 75.732 74.712 75.732 75.12H78.732C78.732 75.272 78.6811 75.6468 78.3365 75.9531C78.0256 76.2295 77.7105 76.236 77.664 76.236V73.236ZM75.732 83.952V87.792H78.732V83.952H75.732ZM75.732 87.792C75.732 88.1672 75.8268 88.7241 76.2793 89.1767C76.7319 89.6292 77.2888 89.724 77.664 89.724V86.724C77.7512 86.724 78.0921 86.7468 78.4007 87.0553C78.7092 87.3639 78.732 87.7048 78.732 87.792H75.732ZM77.664 89.724H81.888V86.724H77.664V89.724ZM81.888 89.724C82.296 89.724 82.8628 89.6011 83.2971 89.1125C83.7015 88.6576 83.772 88.1265 83.772 87.792H80.772C80.772 87.7455 80.7785 87.4304 81.0549 87.1195C81.3612 86.7749 81.736 86.724 81.888 86.724V89.724ZM83.772 87.792V83.952H80.772V87.792H83.772ZM83.772 83.952C83.772 83.6175 83.7015 83.0864 83.2971 82.6315C82.8628 82.1429 82.296 82.02 81.888 82.02V85.02C81.736 85.02 81.3612 84.9691 81.0549 84.6245C80.7785 84.3136 80.772 83.9985 80.772 83.952H83.772ZM81.888 82.02H77.664V85.02H81.888V82.02ZM77.664 82.02C77.2888 82.02 76.7319 82.1148 76.2793 82.5673C75.8268 83.0199 75.732 83.5768 75.732 83.952H78.732C78.732 84.0392 78.7092 84.3801 78.4007 84.6887C78.0921 84.9972 77.7512 85.02 77.664 85.02V82.02ZM108.768 79.104L107.707 80.1647L107.733 80.1899L107.759 80.2139L108.768 79.104ZM108.768 76.608L107.707 75.5473L107.707 75.5473L108.768 76.608ZM107.952 74.016L106.855 75.0395L106.891 75.0773L106.929 75.1126L107.952 74.016ZM107.952 70.608L106.929 69.5114L106.91 69.5291L106.891 69.5473L107.952 70.608ZM143.76 70.752L142.699 71.8127L142.715 71.8287L142.732 71.8443L143.76 70.752ZM143.76 84.24L144.821 85.3007L144.821 85.3007L143.76 84.24ZM107.856 84.48L106.754 85.4974L106.774 85.5195L106.795 85.5407L107.856 84.48ZM107.856 81.648L108.917 82.7087L108.917 82.7087L107.856 81.648ZM106.656 97.584L106.739 99.0817L106.749 99.0811L106.656 97.584ZM105.12 97.056L106.096 95.9171L106.096 95.9171L105.12 97.056ZM104.4 95.616L105.898 95.5328L105.895 95.4915L105.891 95.4504L104.4 95.616ZM104.832 94.128L103.693 93.1518L103.687 93.1591L104.832 94.128ZM106.272 93.408L106.355 94.9057L106.388 94.9039L106.421 94.9006L106.272 93.408ZM107.616 93.312L107.537 91.8141L107.533 91.8143L107.616 93.312ZM109.248 93.216L109.148 91.7193L109.148 91.7193L109.248 93.216ZM110.592 93.12V91.62H110.534L110.477 91.6244L110.592 93.12ZM105.36 89.904L104.299 90.9647L104.321 90.9859L104.343 91.0062L105.36 89.904ZM105.36 87.12L104.299 86.0593L104.299 86.0593L105.36 87.12ZM123.024 87.12L121.922 88.1374L121.942 88.1595L121.963 88.1807L123.024 87.12ZM123.024 89.904L124.085 90.9647L124.085 90.9647L123.024 89.904ZM117.696 92.544V94.044H117.779L117.862 94.0348L117.696 92.544ZM121.536 92.112L121.705 93.6024L121.711 93.6017L121.536 92.112ZM122.976 92.592L121.959 93.6942L121.982 93.7162L122.007 93.7371L122.976 92.592ZM123.024 95.52L121.885 94.5438L121.885 94.5438L123.024 95.52ZM121.536 96.288L121.379 94.7962L121.368 94.7974L121.357 94.7987L121.536 96.288ZM104.928 102.768L103.831 103.791L103.849 103.81L103.867 103.829L104.928 102.768ZM104.928 99.36L105.989 100.421L106.007 100.402L106.025 100.383L104.928 99.36ZM125.904 96.096L124.812 97.124L124.843 97.1571L124.876 97.1883L125.904 96.096ZM125.904 87.312L124.843 86.2513L124.827 86.2674L124.812 86.284L125.904 87.312ZM145.92 87.312L144.859 88.3727L144.859 88.3727L145.92 87.312ZM145.92 96.096L146.948 97.1883L146.965 97.1727L146.981 97.1567L145.92 96.096ZM147.072 99.36L145.975 100.383L145.993 100.402L146.011 100.421L147.072 99.36ZM147.072 102.768L148.133 103.829L148.151 103.81L148.169 103.791L147.072 102.768ZM140.832 108.384L139.334 108.309L139.334 108.309L140.832 108.384ZM140.448 110.208L141.846 110.752L141.846 110.752L140.448 110.208ZM139.68 111.408L138.759 110.224L138.72 110.254L138.683 110.287L139.68 111.408ZM138.192 112.032L137.86 110.569L137.828 110.576L137.797 110.585L138.192 112.032ZM135.984 112.368L135.922 110.869L135.922 110.869L135.984 112.368ZM126.72 112.272L126.655 113.771L126.666 113.771L126.72 112.272ZM124.8 111.456L123.739 112.517L123.755 112.533L123.772 112.548L124.8 111.456ZM123.984 109.632L125.482 109.564L125.482 109.561L123.984 109.632ZM124.656 107.904L125.717 108.965L125.717 108.965L124.656 107.904ZM126.384 107.232L126.313 108.73L126.323 108.731L126.384 107.232ZM133.92 107.136L134.792 108.357L134.806 108.346L134.82 108.336L133.92 107.136ZM115.44 103.632L114.769 104.974L114.769 104.974L115.44 103.632ZM119.712 105.84L118.987 107.153L118.989 107.154L119.712 105.84ZM120.576 109.488L119.308 108.687L119.299 108.702L119.29 108.716L120.576 109.488ZM118.944 110.688L118.612 109.225L118.58 109.232L118.549 109.241L118.944 110.688ZM116.928 110.4L117.7 109.114L117.692 109.109L117.684 109.104L116.928 110.4ZM111.552 107.424L112.223 106.082L112.223 106.082L111.552 107.424ZM110.304 105.936L108.841 106.268L108.85 106.309L108.862 106.348L110.304 105.936ZM110.64 103.968L111.908 104.769L111.948 104.706L111.982 104.639L110.64 103.968ZM110.736 103.776L109.675 102.715L109.503 102.887L109.394 103.105L110.736 103.776ZM110.736 103.584L109.313 104.058L109.425 104.394L109.675 104.645L110.736 103.584ZM137.568 82.572C137.943 82.572 138.5 82.4772 138.953 82.0247C139.405 81.5721 139.5 81.0152 139.5 80.64H136.5C136.5 80.5528 136.523 80.2119 136.831 79.9033C137.14 79.5948 137.481 79.572 137.568 79.572V82.572ZM139.5 80.64V80.016H136.5V80.64H139.5ZM139.5 80.016C139.5 79.6408 139.405 79.0839 138.953 78.6313C138.5 78.1788 137.943 78.084 137.568 78.084V81.084C137.481 81.084 137.14 81.0612 136.831 80.7527C136.523 80.4441 136.5 80.1032 136.5 80.016H139.5ZM137.568 78.084H110.016V81.084H137.568V78.084ZM110.016 78.084C109.905 78.084 109.85 78.0606 109.777 77.9941L107.759 80.2139C108.39 80.7874 109.167 81.084 110.016 81.084V78.084ZM109.829 78.0433C109.775 77.99 109.759 77.9563 109.753 77.9435C109.749 77.9319 109.74 77.908 109.74 77.856H106.74C106.74 78.75 107.086 79.543 107.707 80.1647L109.829 78.0433ZM109.74 77.856C109.74 77.804 109.749 77.7801 109.753 77.7685C109.759 77.7557 109.775 77.722 109.829 77.6687L107.707 75.5473C107.086 76.169 106.74 76.962 106.74 77.856H109.74ZM109.829 77.6687C109.882 77.6153 109.916 77.5988 109.928 77.5935C109.94 77.5885 109.964 77.58 110.016 77.58V74.58C109.122 74.58 108.329 74.9257 107.707 75.5473L109.829 77.6687ZM110.016 77.58H137.568V74.58H110.016V77.58ZM137.568 77.58C137.943 77.58 138.5 77.4852 138.953 77.0327C139.405 76.5801 139.5 76.0232 139.5 75.648H136.5C136.5 75.5608 136.523 75.2199 136.831 74.9113C137.14 74.6028 137.481 74.58 137.568 74.58V77.58ZM139.5 75.648V75.12H136.5V75.648H139.5ZM139.5 75.12C139.5 74.7448 139.405 74.1879 138.953 73.7353C138.5 73.2828 137.943 73.188 137.568 73.188V76.188C137.481 76.188 137.14 76.1652 136.831 75.8567C136.523 75.5481 136.5 75.2072 136.5 75.12H139.5ZM137.568 73.188H109.68V76.188H137.568V73.188ZM109.68 73.188C109.378 73.188 109.171 73.1015 108.975 72.9194L106.929 75.1126C107.693 75.8265 108.638 76.188 109.68 76.188V73.188ZM109.049 72.9925C108.866 72.7974 108.78 72.5899 108.78 72.288H105.78C105.78 73.33 106.142 74.2746 106.855 75.0395L109.049 72.9925ZM108.78 72.288C108.78 71.987 108.864 71.817 109.013 71.6687L106.891 69.5473C106.144 70.295 105.78 71.245 105.78 72.288H108.78ZM108.975 71.7046C109.171 71.5225 109.378 71.436 109.68 71.436V68.436C108.638 68.436 107.693 68.7975 106.929 69.5114L108.975 71.7046ZM109.68 71.436H141.84V68.436H109.68V71.436ZM141.84 71.436C142.159 71.436 142.422 71.5358 142.699 71.8127L144.821 69.6913C144.01 68.8802 142.993 68.436 141.84 68.436V71.436ZM142.732 71.8443C142.98 72.0777 143.076 72.3086 143.076 72.624H146.076C146.076 71.4674 145.628 70.4503 144.788 69.6597L142.732 71.8443ZM143.076 72.624V82.32H146.076V72.624H143.076ZM143.076 82.32C143.076 82.6385 142.976 82.9024 142.699 83.1793L144.821 85.3007C145.632 84.4895 146.076 83.4735 146.076 82.32H143.076ZM142.699 83.1793C142.422 83.4562 142.159 83.556 141.84 83.556V86.556C142.993 86.556 144.01 86.1118 144.821 85.3007L142.699 83.1793ZM141.84 83.556H109.248V86.556H141.84V83.556ZM109.248 83.556C109.101 83.556 109.019 83.5215 108.917 83.4193L106.795 85.5407C107.461 86.2065 108.307 86.556 109.248 86.556V83.556ZM108.958 83.4626C108.819 83.3112 108.78 83.1903 108.78 83.04H105.78C105.78 83.9777 106.125 84.8168 106.754 85.4974L108.958 83.4626ZM108.78 83.04C108.78 82.893 108.815 82.8108 108.917 82.7087L106.795 80.5873C106.129 81.2532 105.78 82.099 105.78 83.04H108.78ZM108.917 82.7087C109.019 82.6065 109.101 82.572 109.248 82.572V79.572C108.307 79.572 107.461 79.9215 106.795 80.5873L108.917 82.7087ZM109.248 82.572H137.568V79.572H109.248V82.572ZM106.573 96.0863C106.393 96.0963 106.258 96.0558 106.096 95.9171L104.144 98.1949C104.878 98.8242 105.767 99.1357 106.739 99.0817L106.573 96.0863ZM106.096 95.9171C105.951 95.7924 105.906 95.6901 105.898 95.5328L102.902 95.6992C102.958 96.6939 103.393 97.5516 104.144 98.1949L106.096 95.9171ZM105.891 95.4504C105.869 95.2549 105.91 95.1766 105.977 95.0969L103.687 93.1591C103.05 93.9114 102.803 94.8251 102.909 95.7816L105.891 95.4504ZM105.971 95.1042C106.096 94.9587 106.198 94.9144 106.355 94.9057L106.189 91.9103C105.194 91.9656 104.336 92.4013 103.693 93.1518L105.971 95.1042ZM106.421 94.9006C106.709 94.8718 107.131 94.8413 107.699 94.8097L107.533 91.8143C106.949 91.8467 106.475 91.8802 106.123 91.9154L106.421 94.9006ZM107.695 94.8099C108.308 94.7776 108.859 94.7452 109.348 94.7127L109.148 91.7193C108.677 91.7508 108.14 91.7823 107.537 91.8141L107.695 94.8099ZM109.348 94.7127C109.832 94.6804 110.285 94.648 110.707 94.6156L110.477 91.6244C110.067 91.656 109.624 91.6876 109.148 91.7193L109.348 94.7127ZM110.592 94.62C110.967 94.62 111.524 94.5252 111.977 94.0727C112.429 93.6201 112.524 93.0632 112.524 92.688H109.524C109.524 92.6008 109.547 92.2599 109.855 91.9513C110.164 91.6428 110.505 91.62 110.592 91.62V94.62ZM112.524 92.688V90.912H109.524V92.688H112.524ZM112.524 90.912C112.524 90.5775 112.453 90.0464 112.049 89.5915C111.615 89.1029 111.048 88.98 110.64 88.98V91.98C110.488 91.98 110.113 91.9291 109.807 91.5845C109.531 91.2736 109.524 90.9585 109.524 90.912H112.524ZM110.64 88.98H106.8V91.98H110.64V88.98ZM106.8 88.98C106.65 88.98 106.529 88.9415 106.377 88.8018L104.343 91.0062C105.023 91.6345 105.862 91.98 106.8 91.98V88.98ZM106.421 88.8433C106.319 88.7412 106.284 88.659 106.284 88.512H103.284C103.284 89.453 103.633 90.2988 104.299 90.9647L106.421 88.8433ZM106.284 88.512C106.284 88.365 106.319 88.2828 106.421 88.1807L104.299 86.0593C103.633 86.7252 103.284 87.571 103.284 88.512H106.284ZM106.421 88.1807C106.581 88.0207 106.688 87.996 106.8 87.996V84.996C105.824 84.996 104.971 85.3873 104.299 86.0593L106.421 88.1807ZM106.8 87.996H121.632V84.996H106.8V87.996ZM121.632 87.996C121.738 87.996 121.809 88.0149 121.922 88.1374L124.126 86.1026C123.471 85.3931 122.614 84.996 121.632 84.996V87.996ZM121.963 88.1807C122.065 88.2828 122.1 88.365 122.1 88.512H125.1C125.1 87.571 124.751 86.7252 124.085 86.0593L121.963 88.1807ZM122.1 88.512C122.1 88.659 122.065 88.7412 121.963 88.8433L124.085 90.9647C124.751 90.2988 125.1 89.453 125.1 88.512H122.1ZM121.963 88.8433C121.861 88.9455 121.779 88.98 121.632 88.98V91.98C122.573 91.98 123.419 91.6305 124.085 90.9647L121.963 88.8433ZM121.632 88.98H117.696V91.98H121.632V88.98ZM117.696 88.98C117.321 88.98 116.764 89.0748 116.311 89.5273C115.859 89.9799 115.764 90.5368 115.764 90.912H118.764C118.764 90.9992 118.741 91.3401 118.433 91.6487C118.124 91.9572 117.783 91.98 117.696 91.98V88.98ZM115.764 90.912V92.16H118.764V90.912H115.764ZM115.764 92.16C115.764 92.568 115.887 93.1348 116.375 93.5691C116.83 93.9735 117.361 94.044 117.696 94.044V91.044C117.743 91.044 118.058 91.0505 118.369 91.3269C118.713 91.6332 118.764 92.008 118.764 92.16H115.764ZM117.862 94.0348C119.015 93.9067 120.296 93.7625 121.705 93.6024L121.367 90.6216C119.96 90.7815 118.681 90.9253 117.53 91.0532L117.862 94.0348ZM121.711 93.6017C121.783 93.5933 121.816 93.6023 121.83 93.607C121.845 93.6122 121.888 93.6292 121.959 93.6942L123.993 91.4898C123.268 90.8201 122.356 90.5052 121.361 90.6223L121.711 93.6017ZM122.007 93.7371C122.066 93.7871 122.08 93.8168 122.083 93.8237C122.087 93.8305 122.1 93.8599 122.1 93.936H125.1C125.1 92.9499 124.697 92.0834 123.945 91.4469L122.007 93.7371ZM122.1 93.936C122.1 94.1978 122.028 94.3766 121.885 94.5438L124.163 96.4962C124.788 95.7674 125.1 94.8902 125.1 93.936H122.1ZM121.885 94.5438C121.76 94.6894 121.621 94.7708 121.379 94.7962L121.693 97.7798C122.667 97.6772 123.52 97.2466 124.163 96.4962L121.885 94.5438ZM121.357 94.7987C117.137 95.3064 112.207 95.7361 106.563 96.0869L106.749 99.0811C112.433 98.7279 117.423 98.2936 121.715 97.7773L121.357 94.7987ZM106.608 101.94C106.307 101.94 106.137 101.856 105.989 101.707L103.867 103.829C104.615 104.576 105.565 104.94 106.608 104.94V101.94ZM106.025 101.745C105.842 101.549 105.756 101.342 105.756 101.04H102.756C102.756 102.082 103.118 103.027 103.831 103.791L106.025 101.745ZM105.756 101.04C105.756 100.739 105.84 100.569 105.989 100.421L103.867 98.2993C103.12 99.047 102.756 99.997 102.756 101.04H105.756ZM106.025 100.383C106.181 100.215 106.341 100.14 106.608 100.14V97.14C105.531 97.14 104.571 97.5446 103.831 98.3365L106.025 100.383ZM106.608 100.14H133.92V97.14H106.608V100.14ZM133.92 100.14C134.279 100.14 134.824 100.049 135.269 99.6047C135.713 99.1601 135.804 98.6152 135.804 98.256H132.804C132.804 98.1528 132.831 97.7999 133.147 97.4833C133.464 97.1668 133.817 97.14 133.92 97.14V100.14ZM135.804 98.256V97.296H132.804V98.256H135.804ZM135.804 97.296C135.804 96.9615 135.733 96.4304 135.329 95.9755C134.895 95.4869 134.328 95.364 133.92 95.364V98.364C133.768 98.364 133.393 98.3131 133.087 97.9685C132.811 97.6576 132.804 97.3425 132.804 97.296H135.804ZM133.92 95.364H130.704V98.364H133.92V95.364ZM130.704 95.364H127.824V98.364H130.704V95.364ZM127.824 95.364C127.476 95.364 127.202 95.2582 126.932 95.0037L124.876 97.1883C125.694 97.9578 126.7 98.364 127.824 98.364V95.364ZM126.996 95.068C126.742 94.7976 126.636 94.5236 126.636 94.176H123.636C123.636 95.3004 124.042 96.3064 124.812 97.124L126.996 95.068ZM126.636 94.176V89.232H123.636V94.176H126.636ZM126.636 89.232C126.636 88.8844 126.742 88.6104 126.996 88.34L124.812 86.284C124.042 87.1016 123.636 88.1076 123.636 89.232H126.636ZM126.965 88.3727C127.242 88.0958 127.505 87.996 127.824 87.996V84.996C126.671 84.996 125.654 85.4402 124.843 86.2513L126.965 88.3727ZM127.824 87.996H144V84.996H127.824V87.996ZM144 87.996C144.319 87.996 144.582 88.0958 144.859 88.3727L146.981 86.2513C146.17 85.4402 145.153 84.996 144 84.996V87.996ZM144.859 88.3727C145.136 88.6495 145.236 88.9135 145.236 89.232H148.236C148.236 88.0785 147.792 87.0624 146.981 86.2513L144.859 88.3727ZM145.236 89.232V94.176H148.236V89.232H145.236ZM145.236 94.176C145.236 94.4945 145.136 94.7584 144.859 95.0353L146.981 97.1567C147.792 96.3456 148.236 95.3295 148.236 94.176H145.236ZM144.892 95.0037C144.622 95.2582 144.348 95.364 144 95.364V98.364C145.124 98.364 146.13 97.9578 146.948 97.1883L144.892 95.0037ZM144 95.364H141.312V98.364H144V95.364ZM141.312 95.364C140.937 95.364 140.38 95.4588 139.927 95.9113C139.475 96.3639 139.38 96.9208 139.38 97.296H142.38C142.38 97.3832 142.357 97.7241 142.049 98.0327C141.74 98.3412 141.399 98.364 141.312 98.364V95.364ZM139.38 97.296V98.256H142.38V97.296H139.38ZM139.38 98.256C139.38 98.664 139.503 99.2308 139.991 99.6651C140.446 100.069 140.977 100.14 141.312 100.14V97.14C141.359 97.14 141.674 97.1465 141.985 97.4229C142.329 97.7292 142.38 98.104 142.38 98.256H139.38ZM141.312 100.14H145.392V97.14H141.312V100.14ZM145.392 100.14C145.659 100.14 145.819 100.215 145.975 100.383L148.169 98.3365C147.429 97.5446 146.469 97.14 145.392 97.14V100.14ZM146.011 100.421C146.16 100.569 146.244 100.739 146.244 101.04H149.244C149.244 99.997 148.88 99.047 148.133 98.2993L146.011 100.421ZM146.244 101.04C146.244 101.342 146.158 101.549 145.975 101.745L148.169 103.791C148.882 103.027 149.244 102.082 149.244 101.04H146.244ZM146.011 101.707C145.863 101.856 145.693 101.94 145.392 101.94V104.94C146.435 104.94 147.385 104.576 148.133 103.829L146.011 101.707ZM145.392 101.94H141.312V104.94H145.392V101.94ZM141.312 101.94C140.937 101.94 140.38 102.035 139.927 102.487C139.475 102.94 139.38 103.497 139.38 103.872H142.38C142.38 103.959 142.357 104.3 142.049 104.609C141.74 104.917 141.399 104.94 141.312 104.94V101.94ZM139.38 103.872V105.696H142.38V103.872H139.38ZM139.38 105.696C139.38 106.839 139.364 107.706 139.334 108.309L142.33 108.459C142.364 107.782 142.38 106.857 142.38 105.696H139.38ZM139.334 108.309C139.31 108.794 139.214 109.244 139.05 109.664L141.846 110.752C142.13 110.02 142.29 109.254 142.33 108.459L139.334 108.309ZM139.05 109.664C138.964 109.886 138.886 110.036 138.825 110.131C138.762 110.229 138.735 110.243 138.759 110.224L140.601 112.592C141.204 112.123 141.584 111.425 141.846 110.752L139.05 109.664ZM138.683 110.287C138.701 110.271 138.663 110.309 138.512 110.373C138.366 110.434 138.154 110.502 137.86 110.569L138.524 113.495C139.294 113.32 140.098 113.044 140.677 112.529L138.683 110.287ZM137.797 110.585C137.207 110.746 136.583 110.842 135.922 110.869L136.046 113.867C136.921 113.83 137.769 113.702 138.587 113.479L137.797 110.585ZM135.922 110.869C135.185 110.9 134.121 110.916 132.72 110.916V113.916C134.135 113.916 135.247 113.9 136.046 113.867L135.922 110.869ZM132.72 110.916C131.436 110.916 129.458 110.869 126.774 110.773L126.666 113.771C129.358 113.867 131.38 113.916 132.72 113.916V110.916ZM126.785 110.773C126.414 110.757 126.114 110.633 125.828 110.364L123.772 112.548C124.574 113.303 125.554 113.723 126.655 113.771L126.785 110.773ZM125.861 110.395C125.605 110.14 125.497 109.883 125.482 109.564L122.486 109.7C122.535 110.789 122.971 111.748 123.739 112.517L125.861 110.395ZM125.482 109.561C125.471 109.315 125.532 109.149 125.717 108.965L123.595 106.843C122.82 107.619 122.433 108.605 122.486 109.703L125.482 109.561ZM125.717 108.965C125.901 108.78 126.067 108.719 126.313 108.73L126.455 105.734C125.357 105.681 124.371 106.068 123.595 106.843L125.717 108.965ZM126.323 108.731C128.691 108.827 130.399 108.876 131.424 108.876V105.876C130.465 105.876 128.813 105.829 126.445 105.733L126.323 108.731ZM131.424 108.876C132.163 108.876 132.786 108.856 133.272 108.809C133.513 108.786 133.752 108.753 133.97 108.704C134.145 108.664 134.483 108.577 134.792 108.357L133.048 105.915C133.245 105.775 133.395 105.758 133.306 105.778C133.26 105.789 133.159 105.806 132.984 105.823C132.638 105.856 132.125 105.876 131.424 105.876V108.876ZM134.82 108.336C135.411 107.893 135.598 107.215 135.676 106.845C135.77 106.395 135.804 105.87 135.804 105.312H132.804C132.804 105.778 132.774 106.069 132.74 106.227C132.724 106.304 132.716 106.307 132.736 106.265C132.754 106.227 132.831 106.078 133.02 105.936L134.82 108.336ZM135.804 105.312V103.872H132.804V105.312H135.804ZM135.804 103.872C135.804 103.537 135.733 103.006 135.329 102.551C134.895 102.063 134.328 101.94 133.92 101.94V104.94C133.768 104.94 133.393 104.889 133.087 104.545C132.811 104.234 132.804 103.919 132.804 103.872H135.804ZM133.92 101.94H115.44V104.94H133.92V101.94ZM115.44 101.94C115.177 101.94 114.704 102.007 114.307 102.403C113.911 102.8 113.844 103.273 113.844 103.536H116.844C116.844 103.735 116.793 104.16 116.429 104.525C116.064 104.889 115.639 104.94 115.44 104.94V101.94ZM113.844 103.536C113.844 104.09 114.128 104.465 114.307 104.645C114.484 104.821 114.667 104.922 114.769 104.974L116.111 102.29C116.149 102.31 116.284 102.379 116.429 102.523C116.576 102.671 116.844 103.014 116.844 103.536H113.844ZM114.769 104.974C116.685 105.932 118.087 106.657 118.987 107.153L120.437 104.527C119.481 103.999 118.035 103.252 116.111 102.29L114.769 104.974ZM118.989 107.154C119.236 107.29 119.375 107.463 119.446 107.791L122.378 107.153C122.129 106.009 121.468 105.094 120.435 104.526L118.989 107.154ZM119.446 107.791C119.527 108.162 119.471 108.429 119.308 108.687L121.844 110.289C122.449 109.331 122.617 108.254 122.378 107.153L119.446 107.791ZM119.29 108.716C119.108 109.019 118.902 109.159 118.612 109.225L119.276 112.151C120.394 111.897 121.276 111.237 121.862 110.26L119.29 108.716ZM118.549 109.241C118.25 109.323 117.998 109.293 117.7 109.114L116.156 111.686C117.138 112.275 118.23 112.437 119.339 112.135L118.549 109.241ZM117.684 109.104C115.371 107.755 113.546 106.744 112.223 106.082L110.881 108.766C112.118 109.384 113.877 110.357 116.172 111.696L117.684 109.104ZM112.223 106.082C111.949 105.945 111.82 105.781 111.746 105.524L108.862 106.348C109.172 107.435 109.875 108.263 110.881 108.766L112.223 106.082ZM111.767 105.604C111.695 105.286 111.738 105.039 111.908 104.769L109.372 103.167C108.774 104.113 108.593 105.178 108.841 106.268L111.767 105.604ZM111.982 104.639L112.078 104.447L109.394 103.105L109.298 103.297L111.982 104.639ZM111.797 104.837C111.992 104.641 112.284 104.25 112.284 103.68C112.284 103.11 111.992 102.719 111.797 102.523L109.675 104.645C109.544 104.513 109.284 104.186 109.284 103.68C109.284 103.174 109.544 102.847 109.675 102.715L111.797 104.837ZM112.159 103.11C112.072 102.849 111.898 102.526 111.564 102.276C111.224 102.021 110.85 101.94 110.544 101.94V104.94C110.334 104.94 110.04 104.883 109.764 104.676C109.494 104.474 109.368 104.223 109.313 104.058L112.159 103.11ZM110.544 101.94H106.608V104.94H110.544V101.94ZM131.136 94.332H140.496V91.332H131.136V94.332ZM140.496 94.332C140.904 94.332 141.471 94.2091 141.905 93.7205C142.309 93.2656 142.38 92.7345 142.38 92.4H139.38C139.38 92.3535 139.387 92.0384 139.663 91.7275C139.969 91.3829 140.344 91.332 140.496 91.332V94.332ZM142.38 92.4V91.056H139.38V92.4H142.38ZM142.38 91.056C142.38 90.7215 142.309 90.1904 141.905 89.7355C141.471 89.2469 140.904 89.124 140.496 89.124V92.124C140.344 92.124 139.969 92.0731 139.663 91.7285C139.387 91.4176 139.38 91.1025 139.38 91.056H142.38ZM140.496 89.124H131.136V92.124H140.496V89.124ZM131.136 89.124C130.761 89.124 130.204 89.2188 129.751 89.6713C129.299 90.1239 129.204 90.6808 129.204 91.056H132.204C132.204 91.1432 132.181 91.4841 131.873 91.7927C131.564 92.1012 131.223 92.124 131.136 92.124V89.124ZM129.204 91.056V92.4H132.204V91.056H129.204ZM129.204 92.4C129.204 92.7752 129.299 93.3321 129.751 93.7847C130.204 94.2372 130.761 94.332 131.136 94.332V91.332C131.223 91.332 131.564 91.3548 131.873 91.6633C132.181 91.9719 132.204 92.3128 132.204 92.4H129.204ZM183 73.6406H184.5V72.3732L183.25 72.1617L183 73.6406ZM183 79.5938L182.591 81.0368L184.5 81.5783V79.5938H183ZM179.414 78.75L179.705 77.2784L179.693 77.2761L179.414 78.75ZM169.734 77.7188L169.78 76.2194L168.234 76.1722V77.7188H169.734ZM169.734 108.047V109.547H171.234V108.047H169.734ZM164.156 108.047H162.656V109.547H164.156V108.047ZM164.156 77.7188H165.656V76.1722L164.11 76.2194L164.156 77.7188ZM154.477 78.75L154.198 77.2761L154.186 77.2785L154.477 78.75ZM150.891 79.5938H149.391V81.5783L151.3 81.0368L150.891 79.5938ZM150.891 73.6406L150.638 72.1621L149.391 72.3755V73.6406H150.891ZM166.922 73.875C169.308 73.875 171.823 73.9597 174.466 74.1297L174.659 71.1359C171.958 70.9622 169.379 70.875 166.922 70.875V73.875ZM174.466 74.1297C177.081 74.2979 179.842 74.6272 182.75 75.1196L183.25 72.1617C180.252 71.654 177.388 71.3115 174.659 71.1359L174.466 74.1297ZM181.5 73.6406V79.5938H184.5V73.6406H181.5ZM183.409 78.1507C182.315 77.8403 181.079 77.5501 179.705 77.2785L179.123 80.2215C180.437 80.4812 181.591 80.7534 182.591 81.0368L183.409 78.1507ZM179.693 77.2761C178.497 77.0498 177.073 76.8344 175.428 76.6288L175.056 79.6056C176.661 79.8062 178.019 80.0127 179.135 80.2239L179.693 77.2761ZM175.428 76.6288C173.747 76.4186 171.863 76.283 169.78 76.2194L169.689 79.2181C171.7 79.2795 173.488 79.4095 175.056 79.6056L175.428 76.6288ZM168.234 77.7188V108.047H171.234V77.7188H168.234ZM169.734 106.547H164.156V109.547H169.734V106.547ZM165.656 108.047V77.7188H162.656V108.047H165.656ZM164.11 76.2194C162.028 76.283 160.144 76.4186 158.462 76.6288L158.834 79.6056C160.403 79.4095 162.191 79.2795 164.202 79.2181L164.11 76.2194ZM158.462 76.6288C156.817 76.8344 155.394 77.0498 154.198 77.2761L154.755 80.2239C155.872 80.0127 157.23 79.8062 158.834 79.6056L158.462 76.6288ZM154.186 77.2785C152.812 77.5501 151.576 77.8403 150.481 78.1507L151.3 81.0368C152.299 80.7534 153.454 80.4812 154.767 80.2215L154.186 77.2785ZM152.391 79.5938V73.6406H149.391V79.5938H152.391ZM151.144 75.1191C154.018 74.6272 156.778 74.298 159.423 74.1298L159.233 71.1358C156.472 71.3114 153.607 71.654 150.638 72.1621L151.144 75.1191ZM159.423 74.1298C162.099 73.9596 164.598 73.875 166.922 73.875V70.875C164.527 70.875 161.963 70.9622 159.233 71.1358L159.423 74.1298ZM206.859 71.6953L206.561 73.1653L206.572 73.1675L206.583 73.1696L206.859 71.6953ZM209.531 72.4688L210.834 71.7245L210.581 71.2828L210.112 71.0858L209.531 72.4688ZM213.281 79.8281L211.913 80.4437L211.918 80.454L213.281 79.8281ZM216.328 87.5156L214.907 87.995L215.207 88.8841L216.137 89.0034L216.328 87.5156ZM218.18 87.7734L217.957 89.2568L217.975 89.2596L217.994 89.2619L218.18 87.7734ZM220.078 88.0312H221.578V86.7348L220.295 86.5471L220.078 88.0312ZM220.078 94.0312L219.675 95.476L221.578 96.0072V94.0312H220.078ZM218.062 93.4688L218.466 92.024L216.004 91.3371L216.604 93.821L218.062 93.4688ZM220.359 108V109.5H221.975L221.855 107.889L220.359 108ZM214.781 108L213.287 108.13L213.406 109.5H214.781V108ZM211.734 92.4844L213.174 92.0637L212.885 91.0742L211.858 90.9895L211.734 92.4844ZM207.398 92.2031L207.33 93.7015L207.33 93.7016L207.398 92.2031ZM196.172 92.4375L196.028 90.9444L195.017 91.0419L194.732 92.0168L196.172 92.4375ZM194.273 99.9844L192.807 99.6701L192.805 99.6784L194.273 99.9844ZM193.125 108V109.5H194.509L194.62 108.12L193.125 108ZM187.547 108L186.05 107.898L185.941 109.5H187.547V108ZM188.367 100.617L186.887 100.377L186.885 100.386L188.367 100.617ZM189.797 93.5156L191.255 93.8679L191.857 91.376L189.39 92.072L189.797 93.5156ZM187.969 94.0312H186.469V96.0128L188.376 95.4749L187.969 94.0312ZM187.969 88.0312L187.757 86.5463L186.469 86.7303V88.0312H187.969ZM191.578 87.5156L191.79 89.0005L192.71 88.8692L193.002 87.9874L191.578 87.5156ZM194.578 79.8281L193.213 79.2055L193.212 79.2094L194.578 79.8281ZM198.375 72.4688L197.794 71.0858L197.329 71.2812L197.076 71.7182L198.375 72.4688ZM201.023 71.6953L201.304 73.1688L201.315 73.1667L201.327 73.1644L201.023 71.6953ZM206.812 86.8594L206.766 88.3586L206.777 88.359L206.789 88.3592L206.812 86.8594ZM209.906 87L209.796 88.496L212.115 88.6665L211.314 86.4833L209.906 87ZM207.539 81.3516L206.185 81.996L206.188 82.0039L206.192 82.0118L207.539 81.3516ZM205.547 77.625L206.809 76.8139L206.566 76.4365L206.156 76.2543L205.547 77.625ZM202.359 77.625L201.788 76.238L201.352 76.4174L201.098 76.8139L202.359 77.625ZM200.344 81.3516L201.691 82.0118L201.693 82.0066L200.344 81.3516ZM198 87L196.589 86.4923L195.805 88.6706L198.113 88.4957L198 87ZM201.023 86.8594L201.047 88.3592L201.059 88.359L201.07 88.3586L201.023 86.8594ZM203.906 72.8906C204.77 72.8906 205.654 72.9811 206.561 73.1653L207.158 70.2253C206.065 70.0033 204.98 69.8906 203.906 69.8906V72.8906ZM206.583 73.1696C207.499 73.3413 208.284 73.572 208.95 73.8517L210.112 71.0858C209.216 70.7093 208.22 70.4243 207.136 70.221L206.583 73.1696ZM208.229 73.213C209.58 75.5779 210.808 77.9881 211.913 80.4437L214.649 79.2126C213.504 76.6682 212.232 74.1721 210.834 71.7245L208.229 73.213ZM211.918 80.454C213.036 82.8897 214.033 85.4032 214.907 87.995L217.749 87.0362C216.842 84.3468 215.807 81.7353 214.644 79.2023L211.918 80.454ZM216.137 89.0034C216.736 89.0802 217.342 89.1646 217.957 89.2568L218.402 86.29C217.767 86.1947 217.139 86.1073 216.519 86.0278L216.137 89.0034ZM217.994 89.2619C218.608 89.3386 219.23 89.4232 219.861 89.5154L220.295 86.5471C219.645 86.4518 219.001 86.3645 218.366 86.285L217.994 89.2619ZM218.578 88.0312V94.0312H221.578V88.0312H218.578ZM220.481 92.5865L218.466 92.024L217.659 94.9135L219.675 95.476L220.481 92.5865ZM216.604 93.821C217.158 96.1108 217.627 98.4479 218.011 100.833L220.973 100.355C220.576 97.8959 220.092 95.483 219.521 93.1165L216.604 93.821ZM218.011 100.833C218.395 103.211 218.679 105.637 218.864 108.111L221.855 107.889C221.665 105.331 221.371 102.82 220.973 100.355L218.011 100.833ZM220.359 106.5H214.781V109.5H220.359V106.5ZM216.276 107.87C216.036 105.124 215.637 102.409 215.078 99.7253L212.141 100.337C212.676 102.904 213.058 105.501 213.287 108.13L216.276 107.87ZM215.078 99.7253C214.523 97.0643 213.889 94.5103 213.174 92.0637L210.295 92.9051C210.986 95.271 211.602 97.7482 212.141 100.337L215.078 99.7253ZM211.858 90.9895C210.326 90.8631 208.862 90.7681 207.467 90.7047L207.33 93.7016C208.685 93.7632 210.112 93.8557 211.611 93.9793L211.858 90.9895ZM207.467 90.7047C206.093 90.6415 204.905 90.6094 203.906 90.6094V93.6094C204.845 93.6094 205.985 93.6397 207.33 93.7015L207.467 90.7047ZM203.906 90.6094C202.591 90.6094 201.284 90.6331 199.984 90.6807L200.094 93.6787C201.357 93.6325 202.627 93.6094 203.906 93.6094V90.6094ZM199.984 90.6807C198.673 90.7287 197.354 90.8166 196.028 90.9444L196.316 93.9306C197.584 93.8084 198.843 93.7245 200.094 93.6787L199.984 90.6807ZM194.732 92.0168C194.018 94.4605 193.376 97.0118 192.807 99.6701L195.74 100.299C196.296 97.707 196.919 95.227 197.612 92.8582L194.732 92.0168ZM192.805 99.6784C192.245 102.366 191.854 105.1 191.63 107.88L194.62 108.12C194.834 105.463 195.208 102.853 195.742 100.29L192.805 99.6784ZM193.125 106.5H187.547V109.5H193.125V106.5ZM189.043 108.102C189.212 105.628 189.481 103.21 189.849 100.848L186.885 100.386C186.503 102.837 186.225 105.341 186.05 107.898L189.043 108.102ZM189.848 100.858C190.232 98.4882 190.702 96.1584 191.255 93.8679L188.339 93.1633C187.767 95.5291 187.283 97.9337 186.887 100.377L189.848 100.858ZM189.39 92.072L187.562 92.5876L188.376 95.4749L190.204 94.9593L189.39 92.072ZM189.469 94.0312V88.0312H186.469V94.0312H189.469ZM188.181 89.5162L191.79 89.0005L191.366 86.0307L187.757 86.5463L188.181 89.5162ZM193.002 87.9874C193.861 85.3958 194.842 82.8824 195.945 80.4469L193.212 79.2094C192.065 81.7426 191.045 84.3542 190.154 87.0438L193.002 87.9874ZM195.943 80.4508C197.063 77.9949 198.307 75.5845 199.674 73.2193L197.076 71.7182C195.662 74.1655 194.374 76.6613 193.213 79.2055L195.943 80.4508ZM198.956 73.8517C199.625 73.5707 200.405 73.3402 201.304 73.1688L200.743 70.2218C199.674 70.4255 198.688 70.7105 197.794 71.0858L198.956 73.8517ZM201.327 73.1644C202.218 72.9803 203.078 72.8906 203.906 72.8906V69.8906C202.86 69.8906 201.797 70.004 200.72 70.2263L201.327 73.1644ZM203.906 88.3125C204.827 88.3125 205.78 88.3278 206.766 88.3586L206.859 85.3601C205.845 85.3284 204.86 85.3125 203.906 85.3125V88.3125ZM206.789 88.3592C207.758 88.3743 208.761 88.4198 209.796 88.496L210.016 85.504C208.927 85.4239 207.867 85.3757 206.836 85.3596L206.789 88.3592ZM211.314 86.4833C210.505 84.2763 209.696 82.3434 208.886 80.6913L206.192 82.0118C206.945 83.5473 207.714 85.3799 208.498 87.5167L211.314 86.4833ZM208.894 80.7072C208.117 79.0746 207.421 77.767 206.809 76.8139L204.285 78.4361C204.797 79.233 205.43 80.4098 206.185 81.996L208.894 80.7072ZM206.156 76.2543C205.79 76.0915 205.412 75.9652 205.026 75.8929L204.474 78.8415C204.588 78.863 204.742 78.9085 204.938 78.9957L206.156 76.2543ZM205.026 75.8929C204.667 75.8256 204.291 75.7969 203.906 75.7969V78.7969C204.146 78.7969 204.333 78.8151 204.474 78.8415L205.026 75.8929ZM203.906 75.7969C203.183 75.7969 202.474 75.9557 201.788 76.238L202.93 79.012C203.307 78.8568 203.629 78.7969 203.906 78.7969V75.7969ZM201.098 76.8139C200.488 77.7622 199.786 79.0657 198.994 80.6965L201.693 82.0066C202.464 80.4187 203.106 79.2378 203.621 78.4361L201.098 76.8139ZM198.997 80.6913C198.185 82.3468 197.383 84.2829 196.589 86.4923L199.411 87.5077C200.179 85.3733 200.94 83.5438 201.691 82.0118L198.997 80.6913ZM198.113 88.4957C199.116 88.4197 200.094 88.3743 201.047 88.3592L201 85.3596C199.984 85.3757 198.946 85.424 197.887 85.5043L198.113 88.4957ZM201.07 88.3586C202.056 88.3278 203.001 88.3125 203.906 88.3125V85.3125C202.968 85.3125 201.991 85.3284 200.977 85.3601L201.07 88.3586ZM255.539 74.6719L254.89 76.0242L254.895 76.0267L255.539 74.6719ZM260.672 84.6094V86.1094H262.172V84.6094H260.672ZM254.578 84.6094H253.078V86.1094H254.578V84.6094ZM251.578 79.0547L250.916 80.4007L250.925 80.4049L251.578 79.0547ZM248.062 77.9531L247.762 79.4227L247.771 79.4247L247.781 79.4265L248.062 77.9531ZM232.969 80.625L234.099 81.6107L234.106 81.6036L234.112 81.5965L232.969 80.625ZM232.969 99.75L231.826 100.721L231.832 100.729L231.838 100.736L232.969 99.75ZM235.242 101.367L234.597 102.721L234.606 102.726L234.615 102.73L235.242 101.367ZM248.062 102.445L248.347 103.918L248.36 103.916L248.062 102.445ZM251.578 101.32L250.925 99.97L250.916 99.9743L251.578 101.32ZM254.578 94.4062H256.078V92.9062H254.578V94.4062ZM250.664 94.5234L250.563 93.0268L250.562 93.0269L250.664 94.5234ZM247.734 94.7578L247.591 93.2647L247.577 93.266L247.563 93.2676L247.734 94.7578ZM245.203 95.1094L243.712 94.9491L243.5 96.9209L245.455 96.5881L245.203 95.1094ZM245.812 89.4375L245.695 87.9421L244.454 88.0394L244.321 89.2773L245.812 89.4375ZM260.672 89.5781H262.172V88.2329L260.835 88.087L260.672 89.5781ZM259.289 103.008L260.407 104.008L260.415 103.999L259.289 103.008ZM255.539 105.68L254.895 104.325L254.89 104.327L255.539 105.68ZM250.055 107.438L250.34 108.91L250.351 108.908L250.055 107.438ZM236.695 107.438L236.399 108.908L236.41 108.91L236.695 107.438ZM231.188 105.68L230.538 107.032L230.544 107.034L231.188 105.68ZM227.461 103.008L226.335 103.999L226.343 104.008L227.461 103.008ZM231.188 74.6719L230.544 73.3171L230.538 73.3196L231.188 74.6719ZM243.375 73.7812C245.645 73.7812 247.772 73.9842 249.758 74.3845L250.351 71.4436C248.15 71.0002 245.824 70.7812 243.375 70.7812V73.7812ZM249.758 74.3845C251.757 74.7872 253.462 75.3388 254.89 76.0242L256.188 73.3196C254.491 72.505 252.54 71.8846 250.351 71.4436L249.758 74.3845ZM254.895 76.0267C256.335 76.7107 257.405 77.4975 258.163 78.3585L260.415 76.3759C259.329 75.1431 257.9 74.133 256.183 73.3171L254.895 76.0267ZM258.163 78.3585C258.874 79.1656 259.172 79.9705 259.172 80.8125H262.172C262.172 79.1545 261.548 77.6626 260.415 76.3759L258.163 78.3585ZM259.172 80.8125V84.6094H262.172V80.8125H259.172ZM260.672 83.1094H254.578V86.1094H260.672V83.1094ZM256.078 84.6094V82.5938H253.078V84.6094H256.078ZM256.078 82.5938C256.078 81.5029 255.649 80.5298 254.95 79.703L252.66 81.6408C252.991 82.0327 253.078 82.3408 253.078 82.5938H256.078ZM254.95 79.703C254.26 78.8881 253.327 78.2345 252.231 77.7044L250.925 80.4049C251.767 80.8124 252.318 81.2369 252.66 81.6408L254.95 79.703ZM252.24 77.7087C251.134 77.1647 249.826 76.7628 248.344 76.4798L247.781 79.4265C249.081 79.6747 250.116 80.0072 250.916 80.4007L252.24 77.7087ZM248.363 76.4836C246.868 76.1778 245.202 76.0312 243.375 76.0312V79.0312C245.048 79.0312 246.507 79.1659 247.762 79.4227L248.363 76.4836ZM243.375 76.0312C241.611 76.0312 239.982 76.1699 238.497 76.4569L239.066 79.4025C240.33 79.1582 241.764 79.0312 243.375 79.0312V76.0312ZM238.497 76.4569C237.036 76.7391 235.735 77.1296 234.615 77.6452L235.869 80.3704C236.718 79.9798 237.777 79.6515 239.066 79.4025L238.497 76.4569ZM234.615 77.6452C233.493 78.1617 232.536 78.8178 231.826 79.6535L234.112 81.5965C234.464 81.1822 235.023 80.7602 235.869 80.3704L234.615 77.6452ZM231.838 79.6393C231.107 80.4784 230.672 81.4744 230.672 82.5938H233.672C233.672 82.3068 233.768 81.9904 234.099 81.6107L231.838 79.6393ZM230.672 82.5938V97.7812H233.672V82.5938H230.672ZM230.672 97.7812C230.672 98.8906 231.111 99.8801 231.826 100.721L234.112 98.7785C233.764 98.3699 233.672 98.0469 233.672 97.7812H230.672ZM231.838 100.736C232.543 101.544 233.488 102.193 234.597 102.721L235.887 100.013C235.027 99.6034 234.457 99.1749 234.099 98.7643L231.838 100.736ZM234.615 102.73C235.735 103.245 237.036 103.636 238.497 103.918L239.066 100.973C237.777 100.723 236.718 100.395 235.869 100.005L234.615 102.73ZM238.497 103.918C239.982 104.205 241.611 104.344 243.375 104.344V101.344C241.764 101.344 240.33 101.217 239.066 100.973L238.497 103.918ZM243.375 104.344C245.198 104.344 246.858 104.206 248.347 103.918L247.778 100.973C246.517 101.216 245.052 101.344 243.375 101.344V104.344ZM248.36 103.916C249.837 103.617 251.14 103.207 252.24 102.666L250.916 99.9743C250.11 100.371 249.069 100.711 247.765 100.975L248.36 103.916ZM252.231 102.671C253.327 102.141 254.26 101.487 254.95 100.672L252.66 98.7342C252.318 99.1381 251.767 99.5626 250.925 99.9701L252.231 102.671ZM254.95 100.672C255.649 99.8452 256.078 98.8721 256.078 97.7812H253.078C253.078 98.0342 252.991 98.3423 252.66 98.7342L254.95 100.672ZM256.078 97.7812V94.4062H253.078V97.7812H256.078ZM254.578 92.9062C253.099 92.9062 251.76 92.946 250.563 93.0268L250.765 96.02C251.881 95.9447 253.151 95.9062 254.578 95.9062V92.9062ZM250.562 93.0269C249.412 93.1057 248.421 93.1849 247.591 93.2647L247.878 96.2509C248.673 96.1745 249.635 96.0975 250.767 96.0199L250.562 93.0269ZM247.563 93.2676C246.59 93.3792 245.719 93.5 244.951 93.6306L245.455 96.5881C246.156 96.4687 246.972 96.3551 247.905 96.248L247.563 93.2676ZM246.695 95.2696L247.304 89.5977L244.321 89.2773L243.712 94.9491L246.695 95.2696ZM245.93 90.9329C248.287 90.7481 250.497 90.6562 252.562 90.6562V87.6562C250.409 87.6562 248.12 87.7519 245.695 87.9421L245.93 90.9329ZM252.562 90.6562C255.341 90.6562 257.99 90.7944 260.509 91.0693L260.835 88.087C258.198 87.7993 255.44 87.6562 252.562 87.6562V90.6562ZM259.172 89.5781V99.5625H262.172V89.5781H259.172ZM259.172 99.5625C259.172 100.405 258.874 101.209 258.163 102.016L260.415 103.999C261.548 102.712 262.172 101.22 262.172 99.5625H259.172ZM258.171 102.008C257.412 102.857 256.339 103.639 254.895 104.325L256.183 107.034C257.896 106.221 259.323 105.221 260.407 104.008L258.171 102.008ZM254.89 104.327C253.462 105.013 251.757 105.564 249.758 105.967L250.351 108.908C252.54 108.467 254.491 107.847 256.188 107.032L254.89 104.327ZM249.769 105.965C247.779 106.351 245.648 106.547 243.375 106.547V109.547C245.82 109.547 248.143 109.336 250.34 108.91L249.769 105.965ZM243.375 106.547C241.102 106.547 238.971 106.351 236.981 105.965L236.41 108.91C238.607 109.336 240.93 109.547 243.375 109.547V106.547ZM236.992 105.967C234.992 105.564 233.278 105.012 231.831 104.325L230.544 107.034C232.254 107.847 234.211 108.467 236.399 108.908L236.992 105.967ZM231.837 104.327C230.409 103.642 229.341 102.86 228.579 102.008L226.343 104.008C227.425 105.218 228.841 106.217 230.538 107.032L231.837 104.327ZM228.587 102.016C227.876 101.209 227.578 100.405 227.578 99.5625H224.578C224.578 101.22 225.202 102.712 226.335 103.999L228.587 102.016ZM227.578 99.5625V80.8125H224.578V99.5625H227.578ZM227.578 80.8125C227.578 79.9705 227.876 79.1656 228.587 78.3585L226.335 76.3759C225.202 77.6626 224.578 79.1545 224.578 80.8125H227.578ZM228.587 78.3585C229.347 77.4946 230.413 76.7075 231.837 76.0242L230.538 73.3196C228.837 74.1362 227.418 75.146 226.335 76.3759L228.587 78.3585ZM231.831 76.0267C233.278 75.3394 234.992 74.7873 236.992 74.3845L236.399 71.4436C234.211 71.8846 232.254 72.5044 230.544 73.3171L231.831 76.0267ZM236.992 74.3845C238.978 73.9842 241.105 73.7812 243.375 73.7812V70.7812C240.926 70.7812 238.6 71.0002 236.399 71.4436L236.992 74.3845Z" fill="#F7EAEA"/>
</g>
<defs>
<filter id="filter0_d" x="25" y="0" width="108" height="168" filterUnits="userSpaceOnUse" color-interpolation-filters="sRGB">
<feFlood flood-opacity="0" result="BackgroundImageFix"/>
<feColorMatrix in="SourceAlpha" type="matrix" values="0 0 0 0 0 0 0 0 0 0 0 0 0 0 0 0 0 0 127 0"/>
<feOffset dy="4"/>
<feGaussianBlur stdDeviation="2"/>
<feColorMatrix type="matrix" values="0 0 0 0 0 0 0 0 0 0 0 0 0 0 0 0 0 0 0.25 0"/>
<feBlend mode="normal" in2="BackgroundImageFix" result="effect1_dropShadow"/>
<feBlend mode="normal" in="SourceGraphic" in2="effect1_dropShadow" result="shape"/>
</filter>
<filter id="filter1_d" x="113" y="21" width="137.514" height="184.542" filterUnits="userSpaceOnUse" color-interpolation-filters="sRGB">
<feFlood flood-opacity="0" result="BackgroundImageFix"/>
<feColorMatrix in="SourceAlpha" type="matrix" values="0 0 0 0 0 0 0 0 0 0 0 0 0 0 0 0 0 0 127 0"/>
<feOffset dy="4"/>
<feGaussianBlur stdDeviation="2"/>
<feColorMatrix type="matrix" values="0 0 0 0 0 0 0 0 0 0 0 0 0 0 0 0 0 0 0.25 0"/>
<feBlend mode="normal" in2="BackgroundImageFix" result="effect1_dropShadow"/>
<feBlend mode="normal" in="SourceGraphic" in2="effect1_dropShadow" result="shape"/>
</filter>
<filter id="filter2_d" x="14.0001" y="5" width="95.0656" height="93" filterUnits="userSpaceOnUse" color-interpolation-filters="sRGB">
<feFlood flood-opacity="0" result="BackgroundImageFix"/>
<feColorMatrix in="SourceAlpha" type="matrix" values="0 0 0 0 0 0 0 0 0 0 0 0 0 0 0 0 0 0 127 0"/>
<feOffset dy="4"/>
<feGaussianBlur stdDeviation="2"/>
<feColorMatrix type="matrix" values="0 0 0 0 0 0 0 0 0 0 0 0 0 0 0 0 0 0 0.25 0"/>
<feBlend mode="normal" in2="BackgroundImageFix" result="effect1_dropShadow"/>
<feBlend mode="normal" in="SourceGraphic" in2="effect1_dropShadow" result="shape"/>
</filter>
<filter id="filter3_d" x="161.234" y="41.9754" width="88.081" height="85.7312" filterUnits="userSpaceOnUse" color-interpolation-filters="sRGB">
<feFlood flood-opacity="0" result="BackgroundImageFix"/>
<feColorMatrix in="SourceAlpha" type="matrix" values="0 0 0 0 0 0 0 0 0 0 0 0 0 0 0 0 0 0 127 0"/>
<feOffset dy="4"/>
<feGaussianBlur stdDeviation="2"/>
<feColorMatrix type="matrix" values="0 0 0 0 0 0 0 0 0 0 0 0 0 0 0 0 0 0 0.25 0"/>
<feBlend mode="normal" in2="BackgroundImageFix" result="effect1_dropShadow"/>
<feBlend mode="normal" in="SourceGraphic" in2="effect1_dropShadow" result="shape"/>
</filter>
<filter id="filter4_d" x="0.9375" y="67.38" width="265.234" height="55.3338" filterUnits="userSpaceOnUse" color-interpolation-filters="sRGB">
<feFlood flood-opacity="0" result="BackgroundImageFix"/>
<feColorMatrix in="SourceAlpha" type="matrix" values="0 0 0 0 0 0 0 0 0 0 0 0 0 0 0 0 0 0 127 0"/>
<feOffset dy="4"/>
<feGaussianBlur stdDeviation="2"/>
<feColorMatrix type="matrix" values="0 0 0 0 0 0 0 0 0 0 0 0 0 0 0 0 0 0 0.25 0"/>
<feBlend mode="normal" in2="BackgroundImageFix" result="effect1_dropShadow"/>
<feBlend mode="normal" in="SourceGraphic" in2="effect1_dropShadow" result="shape"/>
</filter>
</defs>
</svg>
